[Ivy]
[>Created: Thu Oct 16 10:34:29 CEST 2014]
12C9CF32100C49C3 3.17 #module
>Proto >Proto Collection #zClass
Cb0 CronJob Big #zClass
Cb0 B #cInfo
Cb0 #process
Cb0 @TextInP .resExport .resExport #zField
Cb0 @TextInP .type .type #zField
Cb0 @TextInP .processKind .processKind #zField
Cb0 @AnnotationInP-0n ai ai #zField
Cb0 @TextInP .xml .xml #zField
Cb0 @TextInP .responsibility .responsibility #zField
Cb0 @StartEvent f0 '' #zField
Cb0 @StartRequest f3 '' #zField
Cb0 @Trigger f4 '' #zField
Cb0 @GridStep f5 '' #zField
Cb0 @CallSub f8 '' #zField
Cb0 @EndTask f9 '' #zField
Cb0 @GridStep f14 '' #zField
Cb0 @Alternative f10 '' #zField
Cb0 @PushWFArc f17 '' #zField
Cb0 @Alternative f6 '' #zField
Cb0 @PushWFArc f12 '' #zField
Cb0 @GridStep f22 '' #zField
Cb0 @PushWFArc f23 '' #zField
Cb0 @PushWFArc f13 '' #zField
Cb0 @GridStep f25 '' #zField
Cb0 @Trigger f27 '' #zField
Cb0 @Alternative f30 '' #zField
Cb0 @PushWFArc f35 '' #zField
Cb0 @PushWFArc f37 '' #zField
Cb0 @Split f31 '' #zField
Cb0 @PushWFArc f34 '' #zField
Cb0 @Join f28 '' #zField
Cb0 @InfoButton f1 '' #zField
Cb0 @PushWFArc f26 '' #zField
Cb0 @PushWFArc f15 '' #zField
Cb0 @CallSub f18 '' #zField
Cb0 @GridStep f32 '' #zField
Cb0 @StartRequest f36 '' #zField
Cb0 @StartRequest f38 '' #zField
Cb0 @GridStep f39 '' #zField
Cb0 @CallSub f40 '' #zField
Cb0 @PushWFArc f43 '' #zField
Cb0 @PushWFArc f44 '' #zField
Cb0 @Alternative f50 '' #zField
Cb0 @PushWFArc f51 '' #zField
Cb0 @SJArc f41 '' #zField
Cb0 @PushWFArc f52 '' #zField
Cb0 @Alternative f53 '' #zField
Cb0 @PushWFArc f54 '' #zField
Cb0 @SJArc f24 '' #zField
Cb0 @PushWFArc f55 '' #zField
Cb0 @Alternative f56 '' #zField
Cb0 @Alternative f58 '' #zField
Cb0 @PushWFArc f59 '' #zField
Cb0 @EndTask f60 '' #zField
Cb0 @PushWFArc f61 '' #zField
Cb0 @PushWFArc f33 '' #zField
Cb0 @PushWFArc f48 '' #zField
Cb0 @PushWFArc f49 '' #zField
Cb0 @StartRequest f7 '' #zField
Cb0 @StartRequest f67 '' #zField
Cb0 @StartRequest f72 '' #zField
Cb0 @PushWFArc f79 '' #zField
Cb0 @Split f83 '' #zField
Cb0 @CallSub f85 '' #zField
Cb0 @CallSub f86 '' #zField
Cb0 @CallSub f87 '' #zField
Cb0 @PushWFArc f80 '' #zField
Cb0 @PushWFArc f88 '' #zField
Cb0 @Join f89 '' #zField
Cb0 @PushWFArc f97 '' #zField
Cb0 @PushWFArc f112 '' #zField
Cb0 @CallSub f73 '' #zField
Cb0 @CallSub f75 '' #zField
Cb0 @CallSub f92 '' #zField
Cb0 @PushWFArc f95 '' #zField
Cb0 @PushWFArc f64 '' #zField
Cb0 @PushWFArc f46 '' #zField
Cb0 @EndTask f65 '' #zField
Cb0 @PushWFArc f100 '' #zField
Cb0 @EndTask f101 '' #zField
Cb0 @PushWFArc f102 '' #zField
Cb0 @EndTask f104 '' #zField
Cb0 @PushWFArc f107 '' #zField
Cb0 @SJArc f108 '' #zField
Cb0 @SJArc f103 '' #zField
Cb0 @EndTask f11 '' #zField
Cb0 @PushWFArc f78 '' #zField
Cb0 @StartEvent f74 '' #zField
Cb0 @EndTask f76 '' #zField
Cb0 @PushWFArc f81 '' #zField
Cb0 @GridStep f62 '' #zField
Cb0 @PushWFArc f82 '' #zField
Cb0 @CallSub f91 '' #zField
Cb0 @PushWFArc f98 '' #zField
Cb0 @PushWFArc f42 '' #zField
Cb0 @PushWFArc f109 '' #zField
Cb0 @PushWFArc f19 '' #zField
Cb0 @PushWFArc f47 '' #zField
Cb0 @PushWFArc f29 '' #zField
Cb0 @PushWFArc f45 '' #zField
Cb0 @PushWFArc f20 '' #zField
Cb0 @SJArc f57 '' #zField
Cb0 @GridStep f63 '' #zField
Cb0 @PushWFArc f70 '' #zField
Cb0 @SJArc f90 '' #zField
Cb0 @InfoButton f21 '' #zField
Cb0 @PushWFArc f2 '' #zField
>Proto Cb0 Cb0 CronJob #zField
Cb0 f0 outerBean "ch.ivyteam.ivy.process.eventstart.beans.AutoProcessStarterEventBean" #txt
Cb0 f0 beanConfig "60" #txt
Cb0 f0 outLink eventLink.ivp #txt
Cb0 f0 type filehandling.Data #txt
Cb0 f0 @C|.xml '<?xml version="1.0" encoding="UTF-8" standalone="yes"?>
<elementInfo>
    <language>
        <name>timer</name>
        <nameStyle>5
</nameStyle>
    </language>
</elementInfo>
' #txt
Cb0 f0 @C|.responsibility Everybody #txt
Cb0 f0 483 123 26 26 14 0 #rect
Cb0 f0 @|StartEventIcon #fIcon
Cb0 f3 outLink startCronJob.ivp #txt
Cb0 f3 type filehandling.Data #txt
Cb0 f3 inParamDecl '<> param;' #txt
Cb0 f3 actionDecl 'filehandling.Data out;
' #txt
Cb0 f3 guid 12CE8E63A103015D #txt
Cb0 f3 requestEnabled true #txt
Cb0 f3 triggerEnabled false #txt
Cb0 f3 callSignature startCronJob() #txt
Cb0 f3 persist false #txt
Cb0 f3 taskData '#
#Fri Feb 25 19:34:41 CET 2011
TaskTriggered.ROL=Everybody
TaskTriggered.EXTYPE=0
TaskTriggered.EXPRI=2
TaskTriggered.TYPE=0
TaskTriggered.PRI=2
TaskTriggered.EXROL=Everybody
' #txt
Cb0 f3 caseData '#
#Fri Feb 25 19:34:41 CET 2011
businessCreator.user=
businessMilestone.timestamp=
businessObject.code=
businessObject.docDb.code=
businessObject.folder.id=
businessObject.name=
businessPriority=
businessStart.timestamp=
case.description=
case.name=
correspondent.id=
mainContact.docDb.code=
mainContact.folder.id=
mainContact.id=
mainContact.name=
mainContact.type=
process.code=
process.name=
processCategory.code=
processCategory.name=
subType.code=
subType.name=
type.code=
type.name=
' #txt
Cb0 f3 showInStartList 0 #txt
Cb0 f3 taskAndCaseSetupAction 'import ch.ivyteam.ivy.workflow.TaskUpdateDefinition;
ch.ivyteam.ivy.workflow.TaskUpdateDefinition taskUpdDef = new ch.ivyteam.ivy.workflow.TaskUpdateDefinition();taskUpdDef.setPriority(ch.ivyteam.ivy.workflow.WorkflowPriority.valueOf(2));
taskUpdDef.setExpiryActivator("Everybody");
taskUpdDef.setExpiryPriority(ch.ivyteam.ivy.workflow.WorkflowPriority.valueOf(2));
engine.updateCurrentTask(taskUpdDef);
' #txt
Cb0 f3 @C|.xml '<?xml version="1.0" encoding="UTF-8" standalone="yes"?>
<elementInfo>
    <language>
        <name>startCronJob.ivp</name>
        <nameStyle>16,5,7
</nameStyle>
    </language>
</elementInfo>
' #txt
Cb0 f3 @C|.responsibility Everybody #txt
Cb0 f3 611 123 26 26 -39 -32 #rect
Cb0 f3 @|StartRequestIcon #fIcon
Cb0 f3 -8355712|-1|-16777216 #nodeStyle
Cb0 f4 type filehandling.Data #txt
Cb0 f4 processCall 'Functional Processes/Scanning/FileSearch:fileiscanning(ch.soreco.orderbook.bo.ScanShare)' #txt
Cb0 f4 doCall true #txt
Cb0 f4 requestActionDecl '<ch.soreco.orderbook.bo.ScanShare Share> param;
' #txt
Cb0 f4 requestMappingAction 'param.Share=in.Share;
' #txt
Cb0 f4 responseActionDecl 'filehandling.Data out;
' #txt
Cb0 f4 responseMappingAction 'out=in;
' #txt
Cb0 f4 @C|.xml '<?xml version="1.0" encoding="UTF-8" standalone="yes"?>
<elementInfo>
    <language>
        <name>Start to scan share</name>
        <nameStyle>19
</nameStyle>
    </language>
</elementInfo>
' #txt
Cb0 f4 390 532 36 24 20 -2 #rect
Cb0 f4 @|TriggerIcon #fIcon
Cb0 f5 actionDecl 'filehandling.Data out;
' #txt
Cb0 f5 actionTable 'out=in;
' #txt
Cb0 f5 type filehandling.Data #txt
Cb0 f5 390 684 36 24 20 -2 #rect
Cb0 f5 @|StepIcon #fIcon
Cb0 f8 type filehandling.Data #txt
Cb0 f8 processCall 'Functional Processes/scanning/ScanShare:getList(ch.soreco.orderbook.bo.ScanShare)' #txt
Cb0 f8 doCall true #txt
Cb0 f8 requestActionDecl '<ch.soreco.orderbook.bo.ScanShare filter> param;
' #txt
Cb0 f8 responseActionDecl 'filehandling.Data out;
' #txt
Cb0 f8 responseMappingAction 'out=in;
out.error=result.error;
out.Shares=result.ScanShares;
out.success=result.success;
' #txt
Cb0 f8 @C|.xml '<?xml version="1.0" encoding="UTF-8" standalone="yes"?>
<elementInfo>
    <language>
        <name>get Shares</name>
        <nameStyle>10
</nameStyle>
    </language>
</elementInfo>
' #txt
Cb0 f8 558 268 36 24 36 -8 #rect
Cb0 f8 @|CallSubIcon #fIcon
Cb0 f8 -13016147|-1|-16777216 #nodeStyle
Cb0 f9 type filehandling.Data #txt
Cb0 f9 395 387 26 26 14 0 #rect
Cb0 f9 @|EndIcon #fIcon
Cb0 f14 actionDecl 'filehandling.Data out;
' #txt
Cb0 f14 actionTable 'out=in;
' #txt
Cb0 f14 actionCode 'import ch.soreco.filehandling.SmbHelper;

if ( in.Shares.size()>=1 ) {
	out.Share = in.Shares.get(0);
	in.Shares.remove(in.Share);
	try {
		SmbHelper smb = new SmbHelper(in.Share.NetPathUID, in.Share.NetPathPWD);
		out.smbobj = smb;
		out.success = smb.getSmbFile(in.Share.NetPath).exists();
		}
	catch (Exception e) {
		out.error = "Share (ID: "+in.Share.id+") not avalible at "+in.Share.NetPath+" for User "+in.Share.NetPathUID+": "+e.getMessage();
		ivy.log.info(out.error, e);
		out.success = false;
		}
}
else {
	out.error = "No Shares found for Environment:"+ivy.session.getActiveEnvironment();
	ivy.log.debug(out.error);
	out.success = false;
}' #txt
Cb0 f14 type filehandling.Data #txt
Cb0 f14 @C|.xml '<?xml version="1.0" encoding="UTF-8" standalone="yes"?>
<elementInfo>
    <language>
        <name>get next Share</name>
        <nameStyle>14,7
</nameStyle>
        <desc>Authorisation and create a SMB-Object </desc>
    </language>
</elementInfo>
' #txt
Cb0 f14 558 324 36 24 20 -2 #rect
Cb0 f14 @|StepIcon #fIcon
Cb0 f10 type filehandling.Data #txt
Cb0 f10 @C|.xml '<?xml version="1.0" encoding="UTF-8" standalone="yes"?>
<elementInfo>
    <language>
        <name>Share found</name>
        <nameStyle>11
</nameStyle>
    </language>
</elementInfo>
' #txt
Cb0 f10 562 386 28 28 14 0 #rect
Cb0 f10 @|AlternativeIcon #fIcon
Cb0 f17 expr out #txt
Cb0 f17 576 348 576 386 #arcP
Cb0 f6 type filehandling.Data #txt
Cb0 f6 @C|.xml '<?xml version="1.0" encoding="UTF-8" standalone="yes"?>
<elementInfo>
    <language>
        <name>Check interval</name>
        <nameStyle>14
</nameStyle>
    </language>
</elementInfo>
' #txt
Cb0 f6 394 482 28 28 14 0 #rect
Cb0 f6 @|AlternativeIcon #fIcon
Cb0 f12 expr in #txt
Cb0 f12 394 496 390 696 #arcP
Cb0 f12 1 336 496 #addKink
Cb0 f12 2 336 696 #addKink
Cb0 f12 1 0.2992895093228433 0 0 #arcLabel
Cb0 f22 actionDecl 'filehandling.Data out;
' #txt
Cb0 f22 actionTable 'out=in;
' #txt
Cb0 f22 actionCode 'import java.util.Calendar;

Calendar calendar = Calendar.getInstance();
calendar.add(Calendar.SECOND, in.Share.ScanInterval);

out.Share.NextScan = calendar.getTime();' #txt
Cb0 f22 type filehandling.Data #txt
Cb0 f22 @C|.xml '<?xml version="1.0" encoding="UTF-8" standalone="yes"?>
<elementInfo>
    <language>
        <name>set next ScanTime</name>
        <nameStyle>17,7
</nameStyle>
    </language>
</elementInfo>
' #txt
Cb0 f22 390 580 36 24 20 -2 #rect
Cb0 f22 @|StepIcon #fIcon
Cb0 f23 expr out #txt
Cb0 f23 408 556 408 580 #arcP
Cb0 f13 expr in #txt
Cb0 f13 outCond 'in.Share.NextScan <= new DateTime()' #txt
Cb0 f13 408 510 408 532 #arcP
Cb0 f13 0 0.07163998792976335 0 0 #arcLabel
Cb0 f25 actionDecl 'filehandling.Data out;
' #txt
Cb0 f25 actionTable 'out=in;
' #txt
Cb0 f25 type filehandling.Data #txt
Cb0 f25 726 684 36 24 20 -2 #rect
Cb0 f25 @|StepIcon #fIcon
Cb0 f27 type filehandling.Data #txt
Cb0 f27 processCall 'Functional Processes/Housekeeping/Housekeeping:houskeeping(ch.soreco.orderbook.bo.ScanShare)' #txt
Cb0 f27 doCall true #txt
Cb0 f27 requestActionDecl '<ch.soreco.orderbook.bo.ScanShare Share> param;
' #txt
Cb0 f27 requestMappingAction 'param.Share=in.Share;
' #txt
Cb0 f27 responseActionDecl 'filehandling.Data out;
' #txt
Cb0 f27 responseMappingAction 'out=in;
' #txt
Cb0 f27 @C|.xml '<?xml version="1.0" encoding="UTF-8" standalone="yes"?>
<elementInfo>
    <language>
        <name>Start housekeeping</name>
        <nameStyle>18
</nameStyle>
    </language>
</elementInfo>
' #txt
Cb0 f27 726 532 36 24 20 -2 #rect
Cb0 f27 @|TriggerIcon #fIcon
Cb0 f30 type filehandling.Data #txt
Cb0 f30 @C|.xml '<?xml version="1.0" encoding="UTF-8" standalone="yes"?>
<elementInfo>
    <language>
        <name>Check interval</name>
        <nameStyle>14
</nameStyle>
    </language>
</elementInfo>
' #txt
Cb0 f30 730 474 28 28 14 0 #rect
Cb0 f30 @|AlternativeIcon #fIcon
Cb0 f30 -13016147|-1|-16777216 #nodeStyle
Cb0 f35 expr in #txt
Cb0 f35 730 488 726 696 #arcP
Cb0 f35 1 672 488 #addKink
Cb0 f35 2 672 696 #addKink
Cb0 f35 1 0.3480582074742864 0 0 #arcLabel
Cb0 f37 expr in #txt
Cb0 f37 outCond 'in.Share.LastArchiveScan.getDate() < new Date()' #txt
Cb0 f37 744 502 744 532 #arcP
Cb0 f31 actionDecl 'filehandling.Data out1;
filehandling.Data out2;
' #txt
Cb0 f31 actionTable 'out1=in;
out2=in;
' #txt
Cb0 f31 type filehandling.Data #txt
Cb0 f31 @C|.xml '<?xml version="1.0" encoding="UTF-8" standalone="yes"?>
<elementInfo>
    <language>
        <name>Split into FileScanning and Housekeeping</name>
        <nameStyle>40
</nameStyle>
    </language>
</elementInfo>
' #txt
Cb0 f31 562 434 28 28 16 -11 #rect
Cb0 f31 @|ThreadIcon #fIcon
Cb0 f34 expr out #txt
Cb0 f34 576 292 576 324 #arcP
Cb0 f34 0 0.4835632826929255 0 0 #arcLabel
Cb0 f28 actionDecl 'filehandling.Data out;
' #txt
Cb0 f28 actionTable 'out=in1;
' #txt
Cb0 f28 actionCode 'out.Share.NextScan = in1.Share.NextScan;//map filescanning scan date
out.Share.LastArchiveScan = in2.Share.LastArchiveScan;//map scan date of housekeeping
' #txt
Cb0 f28 @C|.xml '<?xml version="1.0" encoding="UTF-8" standalone="yes"?>
<elementInfo>
    <language>
        <name>join Filescanning and Housekeeping</name>
        <nameStyle>34
</nameStyle>
    </language>
</elementInfo>
' #txt
Cb0 f28 562 786 28 28 14 0 #rect
Cb0 f28 @|JoinIcon #fIcon
Cb0 f1 @C|.xml '<?xml version="1.0" encoding="UTF-8" standalone="yes"?>
<elementInfo>
    <language>
        <name>To activate the cronejob,
just reconnect the arrow to the
orange component &quot;get Shares&quot;.</name>
        <nameStyle>88
</nameStyle>
    </language>
</elementInfo>
' #txt
Cb0 f1 108 125 8 6 207 42 #rect
Cb0 f1 @|IBIcon #fIcon
Cb0 f1 -1|-1|-16777216 #nodeStyle
Cb0 f26 expr out1 #txt
Cb0 f26 .xml '<?xml version="1.0" encoding="UTF-8" standalone="yes"?>
<elementInfo>
    <language>
        <name>Filescanning</name>
        <nameStyle>12
</nameStyle>
    </language>
</elementInfo>
' #txt
Cb0 f26 565 451 419 493 #arcP
Cb0 f26 0 0.35121317157712306 -12 -40 #arcLabel
Cb0 f15 expr out2 #txt
Cb0 f15 .xml '<?xml version="1.0" encoding="UTF-8" standalone="yes"?>
<elementInfo>
    <language>
        <name>Housekeeping</name>
        <nameStyle>12
</nameStyle>
    </language>
</elementInfo>
' #txt
Cb0 f15 587 451 733 485 #arcP
Cb0 f15 0 0.3862351611079706 10 -41 #arcLabel
Cb0 f18 type filehandling.Data #txt
Cb0 f18 processCall 'Functional Processes/scanning/ScanShare:getList(ch.soreco.orderbook.bo.ScanShare)' #txt
Cb0 f18 doCall true #txt
Cb0 f18 requestActionDecl '<ch.soreco.orderbook.bo.ScanShare filter> param;
' #txt
Cb0 f18 responseActionDecl 'filehandling.Data out;
' #txt
Cb0 f18 responseMappingAction 'out=in;
out.error=result.error;
out.Shares=result.ScanShares;
out.success=result.success;
' #txt
Cb0 f18 @C|.xml '<?xml version="1.0" encoding="UTF-8" standalone="yes"?>
<elementInfo>
    <language>
        <name>get Shares</name>
        <nameStyle>10
</nameStyle>
    </language>
</elementInfo>
' #txt
Cb0 f18 86 460 36 24 20 -2 #rect
Cb0 f18 @|CallSubIcon #fIcon
Cb0 f18 -8355712|-1|-16777216 #nodeStyle
Cb0 f32 actionDecl 'filehandling.Data out;
' #txt
Cb0 f32 actionTable 'out=in;
' #txt
Cb0 f32 actionCode 'import ch.soreco.filehandling.SmbHelper;

if ( in.Shares.size()>=1 ) {
	out.Share = in.Shares.get(0);
	in.Shares.remove(in.Share);
	try {
		SmbHelper smb = new SmbHelper(in.Share.NetPathUID, in.Share.NetPathPWD);
		out.smbobj = smb;
		out.success = smb.getSmbFile(in.Share.NetPath).exists();
		}
	catch (Exception e) {
		out.error = "Share (ID: "+in.Share.id+") not avalible at "+in.Share.NetPath+" for User "+in.Share.NetPathUID+": "+e.getMessage();
		ivy.log.debug(out.error, e);
		out.success = false;
		}
}
else {
	out.error = "No Shares Defined";
	ivy.log.debug(out.error);
	out.success = false;
}' #txt
Cb0 f32 type filehandling.Data #txt
Cb0 f32 @C|.xml '<?xml version="1.0" encoding="UTF-8" standalone="yes"?>
<elementInfo>
    <language>
        <name>get next Share</name>
        <nameStyle>14
</nameStyle>
    </language>
</elementInfo>
' #txt
Cb0 f32 86 492 36 24 20 -2 #rect
Cb0 f32 @|StepIcon #fIcon
Cb0 f32 -8355712|-1|-16777216 #nodeStyle
Cb0 f36 outLink Test_Fileimport.ivp #txt
Cb0 f36 type filehandling.Data #txt
Cb0 f36 inParamDecl '<> param;' #txt
Cb0 f36 inParamTable 'out.test=true;
' #txt
Cb0 f36 actionDecl 'filehandling.Data out;
' #txt
Cb0 f36 guid 12D7A7DD4477D0FB #txt
Cb0 f36 requestEnabled true #txt
Cb0 f36 triggerEnabled false #txt
Cb0 f36 callSignature Test_Fileimport() #txt
Cb0 f36 persist false #txt
Cb0 f36 startName 'Test für Fileimport' #txt
Cb0 f36 taskData '#
#Wed Jul 20 11:35:54 CEST 2011
TaskTriggered.ROL=Everybody
TaskTriggered.EXTYPE=0
TaskTriggered.EXPRI=2
TaskTriggered.TYPE=0
TaskTriggered.PRI=2
TaskTriggered.NAM=Test f\u00FCr Fileimport
TaskTriggered.EXROL=Everybody
' #txt
Cb0 f36 caseData '#
#Wed Jul 20 11:35:54 CEST 2011
businessCreator.user=
businessMilestone.timestamp=
businessObject.code=
businessObject.docDb.code=
businessObject.folder.id=
businessObject.name=
businessPriority=
businessStart.timestamp=
case.description=
case.name=
correspondent.id=
mainContact.docDb.code=
mainContact.folder.id=
mainContact.id=
mainContact.name=
mainContact.type=
process.code=
process.name=
processCategory.code=
processCategory.name=
subType.code=
subType.name=
type.code=
type.name=
' #txt
Cb0 f36 showInStartList 1 #txt
Cb0 f36 roleExceptionId '>> Ignore Exception' #txt
Cb0 f36 taskAndCaseSetupAction 'import ch.ivyteam.ivy.workflow.TaskUpdateDefinition;
ch.ivyteam.ivy.workflow.TaskUpdateDefinition taskUpdDef = new ch.ivyteam.ivy.workflow.TaskUpdateDefinition();taskUpdDef.setName(engine.expandMacros("Test für Fileimport"));
taskUpdDef.setPriority(ch.ivyteam.ivy.workflow.WorkflowPriority.valueOf(2));
taskUpdDef.setExpiryActivator("Everybody");
taskUpdDef.setExpiryPriority(ch.ivyteam.ivy.workflow.WorkflowPriority.valueOf(2));
engine.updateCurrentTask(taskUpdDef);
' #txt
Cb0 f36 @C|.xml '<?xml version="1.0" encoding="UTF-8" standalone="yes"?>
<elementInfo>
    <language>
        <name>Test_Fileimport.ivp</name>
        <nameStyle>19,5,7
</nameStyle>
    </language>
</elementInfo>
' #txt
Cb0 f36 @C|.responsibility Administrator #txt
Cb0 f36 91 419 26 26 14 0 #rect
Cb0 f36 @|StartRequestIcon #fIcon
Cb0 f36 -8355712|-1|-16777216 #nodeStyle
Cb0 f38 outLink Test_Housekeeping.ivp #txt
Cb0 f38 type filehandling.Data #txt
Cb0 f38 inParamDecl '<> param;' #txt
Cb0 f38 inParamTable 'out.test=true;
' #txt
Cb0 f38 actionDecl 'filehandling.Data out;
' #txt
Cb0 f38 guid 12D7A7DDE0BB7E6D #txt
Cb0 f38 requestEnabled true #txt
Cb0 f38 triggerEnabled false #txt
Cb0 f38 callSignature Test_Housekeeping() #txt
Cb0 f38 persist false #txt
Cb0 f38 startName 'Test für Housekeeping' #txt
Cb0 f38 taskData '#
#Wed Jul 20 11:35:59 CEST 2011
TaskTriggered.ROL=Everybody
TaskTriggered.EXTYPE=0
TaskTriggered.EXPRI=2
TaskTriggered.TYPE=0
TaskTriggered.PRI=2
TaskTriggered.EXROL=Everybody
TaskTriggered.NAM=Test f\u00FCr Housekeeping
' #txt
Cb0 f38 caseData '#
#Wed Jul 20 11:35:59 CEST 2011
businessCreator.user=
businessMilestone.timestamp=
businessObject.code=
businessObject.docDb.code=
businessObject.folder.id=
businessObject.name=
businessPriority=
businessStart.timestamp=
case.description=
case.name=
correspondent.id=
mainContact.docDb.code=
mainContact.folder.id=
mainContact.id=
mainContact.name=
mainContact.type=
process.code=
process.name=
processCategory.code=
processCategory.name=
subType.code=
subType.name=
type.code=
type.name=
' #txt
Cb0 f38 showInStartList 1 #txt
Cb0 f38 roleExceptionId '>> Ignore Exception' #txt
Cb0 f38 taskAndCaseSetupAction 'import ch.ivyteam.ivy.workflow.TaskUpdateDefinition;
ch.ivyteam.ivy.workflow.TaskUpdateDefinition taskUpdDef = new ch.ivyteam.ivy.workflow.TaskUpdateDefinition();taskUpdDef.setName(engine.expandMacros("Test für Housekeeping"));
taskUpdDef.setPriority(ch.ivyteam.ivy.workflow.WorkflowPriority.valueOf(2));
taskUpdDef.setExpiryActivator("Everybody");
taskUpdDef.setExpiryPriority(ch.ivyteam.ivy.workflow.WorkflowPriority.valueOf(2));
engine.updateCurrentTask(taskUpdDef);
' #txt
Cb0 f38 @C|.xml '<?xml version="1.0" encoding="UTF-8" standalone="yes"?>
<elementInfo>
    <language>
        <name>Test_Housekeeping.ivp</name>
        <nameStyle>21,5,7
</nameStyle>
    </language>
</elementInfo>
' #txt
Cb0 f38 @C|.responsibility Administrator #txt
Cb0 f38 995 419 26 26 14 0 #rect
Cb0 f38 @|StartRequestIcon #fIcon
Cb0 f38 -8355712|-1|-16777216 #nodeStyle
Cb0 f39 actionDecl 'filehandling.Data out;
' #txt
Cb0 f39 actionTable 'out=in;
' #txt
Cb0 f39 actionCode 'import ch.soreco.filehandling.SmbHelper;

if ( in.Shares.size()>=1 ) {
	out.Share = in.Shares.get(0);
	in.Shares.remove(in.Share);
	try {
		SmbHelper smb = new SmbHelper(in.Share.NetPathUID, in.Share.NetPathPWD);
		out.smbobj = smb;
		out.success = smb.getSmbFile(in.Share.NetPath).exists();
		}
	catch (Exception e) {
		out.error = "Share (ID: "+in.Share.id+") not avalible at "+in.Share.NetPath+" for User "+in.Share.NetPathUID+": "+e.getMessage();
		ivy.log.debug(out.error, e);
		out.success = false;
		}
}
else {
	out.error = "No Shares Defined";
	ivy.log.debug(out.error);
	out.success = false;
}' #txt
Cb0 f39 type filehandling.Data #txt
Cb0 f39 @C|.xml '<?xml version="1.0" encoding="UTF-8" standalone="yes"?>
<elementInfo>
    <language>
        <name>get next Share</name>
        <nameStyle>14
</nameStyle>
    </language>
</elementInfo>
' #txt
Cb0 f39 990 492 36 24 20 -2 #rect
Cb0 f39 @|StepIcon #fIcon
Cb0 f39 -8355712|-1|-16777216 #nodeStyle
Cb0 f40 type filehandling.Data #txt
Cb0 f40 processCall 'Functional Processes/scanning/ScanShare:getList(ch.soreco.orderbook.bo.ScanShare)' #txt
Cb0 f40 doCall true #txt
Cb0 f40 requestActionDecl '<ch.soreco.orderbook.bo.ScanShare filter> param;
' #txt
Cb0 f40 responseActionDecl 'filehandling.Data out;
' #txt
Cb0 f40 responseMappingAction 'out=in;
out.error=result.error;
out.Shares=result.ScanShares;
out.success=result.success;
' #txt
Cb0 f40 @C|.xml '<?xml version="1.0" encoding="UTF-8" standalone="yes"?>
<elementInfo>
    <language>
        <name>get Shares</name>
        <nameStyle>10
</nameStyle>
    </language>
</elementInfo>
' #txt
Cb0 f40 990 460 36 24 20 -2 #rect
Cb0 f40 @|CallSubIcon #fIcon
Cb0 f40 -8355712|-1|-16777216 #nodeStyle
Cb0 f43 expr out #txt
Cb0 f43 1008 484 1008 492 #arcP
Cb0 f44 expr out #txt
Cb0 f44 1008 445 1008 460 #arcP
Cb0 f50 type filehandling.Data #txt
Cb0 f50 @C|.xml '<?xml version="1.0" encoding="UTF-8" standalone="yes"?>
<elementInfo>
    <language>
        <name>test?</name>
        <nameStyle>5
</nameStyle>
    </language>
</elementInfo>
' #txt
Cb0 f50 394 738 28 28 -13 13 #rect
Cb0 f50 @|AlternativeIcon #fIcon
Cb0 f50 -8355712|-1|-16777216 #nodeStyle
Cb0 f51 expr out #txt
Cb0 f51 408 708 408 738 #arcP
Cb0 f51 0 0.17435411140167814 0 0 #arcLabel
Cb0 f41 expr in #txt
Cb0 f41 outCond !in.test #txt
Cb0 f41 type filehandling.Data #txt
Cb0 f41 var in1 #txt
Cb0 f41 419 755 565 797 #arcP
Cb0 f52 expr in #txt
Cb0 f52 2 #arcStyle
Cb0 f52 394 752 86 504 #arcP
Cb0 f52 1 48 752 #addKink
Cb0 f52 2 48 504 #addKink
Cb0 f52 1 0.4759681534225704 0 0 #arcLabel
Cb0 f53 type filehandling.Data #txt
Cb0 f53 @C|.xml '<?xml version="1.0" encoding="UTF-8" standalone="yes"?>
<elementInfo>
    <language>
        <name>test?</name>
        <nameStyle>5
</nameStyle>
    </language>
</elementInfo>
' #txt
Cb0 f53 730 738 28 28 -12 12 #rect
Cb0 f53 @|AlternativeIcon #fIcon
Cb0 f53 -8355712|-1|-16777216 #nodeStyle
Cb0 f54 expr out #txt
Cb0 f54 744 708 744 738 #arcP
Cb0 f54 0 0.16608440850127726 0 0 #arcLabel
Cb0 f24 expr in #txt
Cb0 f24 outCond !in.test #txt
Cb0 f24 type filehandling.Data #txt
Cb0 f24 var in2 #txt
Cb0 f24 733 755 587 797 #arcP
Cb0 f55 expr in #txt
Cb0 f55 2 #arcStyle
Cb0 f55 758 752 1026 504 #arcP
Cb0 f55 1 1136 752 #addKink
Cb0 f55 2 1136 504 #addKink
Cb0 f55 1 0.38930116625181904 0 0 #arcLabel
Cb0 f56 type filehandling.Data #txt
Cb0 f56 @C|.xml '<?xml version="1.0" encoding="UTF-8" standalone="yes"?>
<elementInfo>
    <language>
        <name>Share found</name>
        <nameStyle>11
</nameStyle>
    </language>
</elementInfo>
' #txt
Cb0 f56 90 530 28 28 14 0 #rect
Cb0 f56 @|AlternativeIcon #fIcon
Cb0 f56 -8355712|-1|-16777216 #nodeStyle
Cb0 f58 type filehandling.Data #txt
Cb0 f58 @C|.xml '<?xml version="1.0" encoding="UTF-8" standalone="yes"?>
<elementInfo>
    <language>
        <name>Share found</name>
        <nameStyle>11
</nameStyle>
    </language>
</elementInfo>
' #txt
Cb0 f58 994 530 28 28 14 0 #rect
Cb0 f58 @|AlternativeIcon #fIcon
Cb0 f58 -8355712|-1|-16777216 #nodeStyle
Cb0 f59 expr out #txt
Cb0 f59 1008 516 1008 530 #arcP
Cb0 f60 type filehandling.Data #txt
Cb0 f60 995 587 26 26 14 0 #rect
Cb0 f60 @|EndIcon #fIcon
Cb0 f60 -8355712|-1|-16777216 #nodeStyle
Cb0 f61 expr in #txt
Cb0 f61 1008 558 1008 587 #arcP
Cb0 f33 expr out #txt
Cb0 f33 104 484 104 492 #arcP
Cb0 f48 expr in #txt
Cb0 f48 outCond in.success #txt
Cb0 f48 2 #arcStyle
Cb0 f48 994 544 762 544 #arcP
Cb0 f48 0 0.7528777135003021 0 0 #arcLabel
Cb0 f49 expr in #txt
Cb0 f49 outCond in.success #txt
Cb0 f49 2 #arcStyle
Cb0 f49 118 544 390 544 #arcP
Cb0 f49 0 0.626379840779696 0 0 #arcLabel
Cb0 f7 outLink Test_IvyArchiving.ivp #txt
Cb0 f7 type filehandling.Data #txt
Cb0 f7 inParamDecl '<> param;' #txt
Cb0 f7 inParamTable 'out.test=true;
' #txt
Cb0 f7 actionDecl 'filehandling.Data out;
' #txt
Cb0 f7 guid 12DBDDC96F9ACD1E #txt
Cb0 f7 requestEnabled true #txt
Cb0 f7 triggerEnabled false #txt
Cb0 f7 callSignature Test_IvyArchiving() #txt
Cb0 f7 persist false #txt
Cb0 f7 startName 'Test für IvyArchivierung' #txt
Cb0 f7 taskData '#
#Wed Jul 20 11:36:11 CEST 2011
TaskTriggered.ROL=Everybody
TaskTriggered.EXTYPE=0
TaskTriggered.EXPRI=2
TaskTriggered.TYPE=0
TaskTriggered.PRI=2
TaskTriggered.EXROL=Everybody
' #txt
Cb0 f7 caseData '#
#Wed Jul 20 11:36:11 CEST 2011
businessCreator.user=
businessMilestone.timestamp=
businessObject.code=
businessObject.docDb.code=
businessObject.folder.id=
businessObject.name=
businessPriority=
businessStart.timestamp=
case.description=
case.name=
correspondent.id=
mainContact.docDb.code=
mainContact.folder.id=
mainContact.id=
mainContact.name=
mainContact.type=
process.code=
process.name=
processCategory.code=
processCategory.name=
subType.code=
subType.name=
type.code=
type.name=
' #txt
Cb0 f7 showInStartList 1 #txt
Cb0 f7 roleExceptionId '>> Ignore Exception' #txt
Cb0 f7 taskAndCaseSetupAction 'import ch.ivyteam.ivy.workflow.TaskUpdateDefinition;
ch.ivyteam.ivy.workflow.TaskUpdateDefinition taskUpdDef = new ch.ivyteam.ivy.workflow.TaskUpdateDefinition();taskUpdDef.setPriority(ch.ivyteam.ivy.workflow.WorkflowPriority.valueOf(2));
taskUpdDef.setExpiryActivator("Everybody");
taskUpdDef.setExpiryPriority(ch.ivyteam.ivy.workflow.WorkflowPriority.valueOf(2));
engine.updateCurrentTask(taskUpdDef);
' #txt
Cb0 f7 @C|.xml '<?xml version="1.0" encoding="UTF-8" standalone="yes"?>
<elementInfo>
    <language>
        <name>Test_IvyArchiving.ivp</name>
        <nameStyle>21,5,7
</nameStyle>
    </language>
</elementInfo>
' #txt
Cb0 f7 @C|.responsibility Administrator #txt
Cb0 f7 2059 67 26 26 14 1 #rect
Cb0 f7 @|StartRequestIcon #fIcon
Cb0 f7 -8355712|-1|-16777216 #nodeStyle
Cb0 f67 outLink Test_IMTFArchiving.ivp #txt
Cb0 f67 type filehandling.Data #txt
Cb0 f67 inParamDecl '<> param;' #txt
Cb0 f67 inParamTable 'out.test=true;
' #txt
Cb0 f67 actionDecl 'filehandling.Data out;
' #txt
Cb0 f67 guid 12DBDDD79A914783 #txt
Cb0 f67 requestEnabled true #txt
Cb0 f67 triggerEnabled false #txt
Cb0 f67 callSignature Test_IMTFArchiving() #txt
Cb0 f67 persist false #txt
Cb0 f67 startName 'Test für IMTF Archivierung' #txt
Cb0 f67 taskData '#
#Wed Jul 20 11:36:06 CEST 2011
TaskTriggered.ROL=Everybody
TaskTriggered.EXTYPE=0
TaskTriggered.EXPRI=2
TaskTriggered.TYPE=0
TaskTriggered.PRI=2
TaskTriggered.EXROL=Everybody
' #txt
Cb0 f67 caseData '#
#Wed Jul 20 11:36:06 CEST 2011
businessCreator.user=
businessMilestone.timestamp=
businessObject.code=
businessObject.docDb.code=
businessObject.folder.id=
businessObject.name=
businessPriority=
businessStart.timestamp=
case.description=
case.name=
correspondent.id=
mainContact.docDb.code=
mainContact.folder.id=
mainContact.id=
mainContact.name=
mainContact.type=
process.code=
process.name=
processCategory.code=
processCategory.name=
subType.code=
subType.name=
type.code=
type.name=
' #txt
Cb0 f67 showInStartList 1 #txt
Cb0 f67 roleExceptionId '>> Ignore Exception' #txt
Cb0 f67 taskAndCaseSetupAction 'import ch.ivyteam.ivy.workflow.TaskUpdateDefinition;
ch.ivyteam.ivy.workflow.TaskUpdateDefinition taskUpdDef = new ch.ivyteam.ivy.workflow.TaskUpdateDefinition();taskUpdDef.setPriority(ch.ivyteam.ivy.workflow.WorkflowPriority.valueOf(2));
taskUpdDef.setExpiryActivator("Everybody");
taskUpdDef.setExpiryPriority(ch.ivyteam.ivy.workflow.WorkflowPriority.valueOf(2));
engine.updateCurrentTask(taskUpdDef);
' #txt
Cb0 f67 @C|.xml '<?xml version="1.0" encoding="UTF-8" standalone="yes"?>
<elementInfo>
    <language>
        <name>Test_IMTFArchiving.ivp</name>
        <nameStyle>22,5,7
</nameStyle>
    </language>
</elementInfo>
' #txt
Cb0 f67 @C|.responsibility Administrator #txt
Cb0 f67 1907 67 26 26 14 0 #rect
Cb0 f67 @|StartRequestIcon #fIcon
Cb0 f67 -8355712|-1|-16777216 #nodeStyle
Cb0 f72 outLink Test_OrderPreparation.ivp #txt
Cb0 f72 type filehandling.Data #txt
Cb0 f72 inParamDecl '<> param;' #txt
Cb0 f72 inParamTable 'out.test=true;
' #txt
Cb0 f72 actionDecl 'filehandling.Data out;
' #txt
Cb0 f72 guid 12DBDDEA4D1AC894 #txt
Cb0 f72 requestEnabled true #txt
Cb0 f72 triggerEnabled false #txt
Cb0 f72 callSignature Test_OrderPreparation() #txt
Cb0 f72 persist false #txt
Cb0 f72 startName 'Test für Auftragsvorbereitung' #txt
Cb0 f72 taskData '#
#Wed Jul 20 11:36:17 CEST 2011
TaskTriggered.ROL=Everybody
TaskTriggered.EXTYPE=0
TaskTriggered.EXPRI=2
TaskTriggered.TYPE=0
TaskTriggered.PRI=2
TaskTriggered.EXROL=Everybody
' #txt
Cb0 f72 caseData '#
#Wed Jul 20 11:36:17 CEST 2011
businessCreator.user=
businessMilestone.timestamp=
businessObject.code=
businessObject.docDb.code=
businessObject.folder.id=
businessObject.name=
businessPriority=
businessStart.timestamp=
case.description=
case.name=
correspondent.id=
mainContact.docDb.code=
mainContact.folder.id=
mainContact.id=
mainContact.name=
mainContact.type=
process.code=
process.name=
processCategory.code=
processCategory.name=
subType.code=
subType.name=
type.code=
type.name=
' #txt
Cb0 f72 showInStartList 1 #txt
Cb0 f72 roleExceptionId '>> Ignore Exception' #txt
Cb0 f72 taskAndCaseSetupAction 'import ch.ivyteam.ivy.workflow.TaskUpdateDefinition;
ch.ivyteam.ivy.workflow.TaskUpdateDefinition taskUpdDef = new ch.ivyteam.ivy.workflow.TaskUpdateDefinition();taskUpdDef.setPriority(ch.ivyteam.ivy.workflow.WorkflowPriority.valueOf(2));
taskUpdDef.setExpiryActivator("Everybody");
taskUpdDef.setExpiryPriority(ch.ivyteam.ivy.workflow.WorkflowPriority.valueOf(2));
engine.updateCurrentTask(taskUpdDef);
' #txt
Cb0 f72 @C|.xml '<?xml version="1.0" encoding="UTF-8" standalone="yes"?>
<elementInfo>
    <language>
        <name>Test_OrderPreparing.ivp</name>
        <nameStyle>23,5,7
</nameStyle>
    </language>
</elementInfo>
' #txt
Cb0 f72 @C|.responsibility Administrator #txt
Cb0 f72 2243 67 26 26 14 0 #rect
Cb0 f72 @|StartRequestIcon #fIcon
Cb0 f72 -8355712|-1|-16777216 #nodeStyle
Cb0 f79 expr out #txt
Cb0 f79 2 #arcStyle
Cb0 f79 619 148 580 268 #arcP
Cb0 f79 0 0.7933987185163257 0 0 #arcLabel
Cb0 f83 actionDecl 'filehandling.Data out2;
filehandling.Data out3;
filehandling.Data out1;
' #txt
Cb0 f83 actionTable 'out1=in;
' #txt
Cb0 f83 type filehandling.Data #txt
Cb0 f83 @C|.xml '<?xml version="1.0" encoding="UTF-8" standalone="yes"?>
<elementInfo>
    <language>
        <name>Split Archiving Threads</name>
        <nameStyle>23
</nameStyle>
    </language>
</elementInfo>
' #txt
Cb0 f83 1354 122 28 28 14 0 #rect
Cb0 f83 @|ThreadIcon #fIcon
Cb0 f85 type filehandling.Data #txt
Cb0 f85 processCall 'Functional Processes/Archiving/filterOrdersForIvyArchiving:call()' #txt
Cb0 f85 doCall true #txt
Cb0 f85 requestActionDecl '<> param;
' #txt
Cb0 f85 responseActionDecl 'filehandling.Data out;
' #txt
Cb0 f85 responseMappingAction 'out=in;
' #txt
Cb0 f85 @C|.xml '<?xml version="1.0" encoding="UTF-8" standalone="yes"?>
<elementInfo>
    <language>
        <name>Ivy Archivierung</name>
        <nameStyle>16,5,7
</nameStyle>
    </language>
</elementInfo>
' #txt
Cb0 f85 1350 468 36 24 20 -1 #rect
Cb0 f85 @|CallSubIcon #fIcon
Cb0 f85 -13016147|-1|-16777216 #nodeStyle
Cb0 f86 type filehandling.Data #txt
Cb0 f86 processCall 'Functional Processes/Archiving/filterOrdersForIMTFArchiving:call()' #txt
Cb0 f86 doCall true #txt
Cb0 f86 requestActionDecl '<> param;
' #txt
Cb0 f86 responseActionDecl 'filehandling.Data out;
' #txt
Cb0 f86 responseMappingAction 'out=in;
' #txt
Cb0 f86 @C|.xml '<?xml version="1.0" encoding="UTF-8" standalone="yes"?>
<elementInfo>
    <language>
        <name>IMTF Archivierung</name>
        <nameStyle>17,5,7
</nameStyle>
    </language>
</elementInfo>
' #txt
Cb0 f86 1646 468 36 24 20 -2 #rect
Cb0 f86 @|CallSubIcon #fIcon
Cb0 f86 -13016147|-1|-16777216 #nodeStyle
Cb0 f87 type filehandling.Data #txt
Cb0 f87 processCall 'Functional Processes/Archiving/filterOrdersForOrderPreparation:call()' #txt
Cb0 f87 doCall true #txt
Cb0 f87 requestActionDecl '<> param;
' #txt
Cb0 f87 responseActionDecl 'filehandling.Data out;
' #txt
Cb0 f87 responseMappingAction 'out=in;
' #txt
Cb0 f87 @C|.xml '<?xml version="1.0" encoding="UTF-8" standalone="yes"?>
<elementInfo>
    <language>
        <name>Bereitstellung</name>
        <nameStyle>14,5,7
</nameStyle>
    </language>
</elementInfo>
' #txt
Cb0 f87 1502 469 36 23 20 -2 #rect
Cb0 f87 @|CallSubIcon #fIcon
Cb0 f87 -13016147|-1|-16777216 #nodeStyle
Cb0 f80 expr out2 #txt
Cb0 f80 1368 150 1368 468 #arcP
Cb0 f80 0 0.49547448288707524 0 0 #arcLabel
Cb0 f88 expr out3 #txt
Cb0 f88 1377 141 1520 468 #arcP
Cb0 f88 1 1520 232 #addKink
Cb0 f88 0 0.8001417766294917 0 0 #arcLabel
Cb0 f89 actionDecl 'filehandling.Data out;
' #txt
Cb0 f89 @C|.xml '<?xml version="1.0" encoding="UTF-8" standalone="yes"?>
<elementInfo>
    <language>
        <name>Join Archiving Threads</name>
        <nameStyle>22,7
</nameStyle>
    </language>
</elementInfo>
' #txt
Cb0 f89 1354 666 28 28 14 0 #rect
Cb0 f89 @|JoinIcon #fIcon
Cb0 f97 expr out #txt
Cb0 f97 104 516 104 530 #arcP
Cb0 f97 0 0.5000000000000001 0 0 #arcLabel
Cb0 f112 expr out #txt
Cb0 f112 104 445 104 460 #arcP
Cb0 f73 type filehandling.Data #txt
Cb0 f73 processCall 'Functional Processes/Archiving/filterOrdersForIMTFArchiving:call()' #txt
Cb0 f73 doCall true #txt
Cb0 f73 requestActionDecl '<> param;
' #txt
Cb0 f73 responseActionDecl 'filehandling.Data out;
' #txt
Cb0 f73 responseMappingAction 'out=in;
' #txt
Cb0 f73 @C|.xml '<?xml version="1.0" encoding="UTF-8" standalone="yes"?>
<elementInfo>
    <language>
        <name>IMTF Archivierung</name>
        <nameStyle>17,5,7
</nameStyle>
    </language>
</elementInfo>
' #txt
Cb0 f73 1902 140 36 24 20 -2 #rect
Cb0 f73 @|CallSubIcon #fIcon
Cb0 f73 -13016147|-1|-16777216 #nodeStyle
Cb0 f75 type filehandling.Data #txt
Cb0 f75 processCall 'Functional Processes/Archiving/filterOrdersForIvyArchiving:call()' #txt
Cb0 f75 doCall true #txt
Cb0 f75 requestActionDecl '<> param;
' #txt
Cb0 f75 responseActionDecl 'filehandling.Data out;
' #txt
Cb0 f75 responseMappingAction 'out=in;
' #txt
Cb0 f75 @C|.xml '<?xml version="1.0" encoding="UTF-8" standalone="yes"?>
<elementInfo>
    <language>
        <name>Ivy Archivierung</name>
        <nameStyle>16,5,7
</nameStyle>
    </language>
</elementInfo>
' #txt
Cb0 f75 2054 140 36 24 20 -1 #rect
Cb0 f75 @|CallSubIcon #fIcon
Cb0 f75 -13016147|-1|-16777216 #nodeStyle
Cb0 f92 type filehandling.Data #txt
Cb0 f92 processCall 'Functional Processes/Archiving/filterOrdersForOrderPreparation:call()' #txt
Cb0 f92 doCall true #txt
Cb0 f92 requestActionDecl '<> param;
' #txt
Cb0 f92 responseActionDecl 'filehandling.Data out;
' #txt
Cb0 f92 responseMappingAction 'out=in;
' #txt
Cb0 f92 @C|.xml '<?xml version="1.0" encoding="UTF-8" standalone="yes"?>
<elementInfo>
    <language>
        <name>Bereitstellung</name>
        <nameStyle>14,5,7
</nameStyle>
    </language>
</elementInfo>
' #txt
Cb0 f92 2238 141 36 23 20 -2 #rect
Cb0 f92 @|CallSubIcon #fIcon
Cb0 f92 -13016147|-1|-16777216 #nodeStyle
Cb0 f95 expr out #txt
Cb0 f95 1 #arcStyle
Cb0 f95 1920 93 1920 140 #arcP
Cb0 f64 expr out #txt
Cb0 f64 1 #arcStyle
Cb0 f64 2072 93 2072 140 #arcP
Cb0 f64 0 0.49967253115597043 0 0 #arcLabel
Cb0 f46 expr out #txt
Cb0 f46 1 #arcStyle
Cb0 f46 2256 93 2256 140 #arcP
Cb0 f46 0 0.4962171113301009 0 0 #arcLabel
Cb0 f65 type filehandling.Data #txt
Cb0 f65 1907 219 26 26 14 0 #rect
Cb0 f65 @|EndIcon #fIcon
Cb0 f100 expr out #txt
Cb0 f100 1920 164 1920 219 #arcP
Cb0 f101 type filehandling.Data #txt
Cb0 f101 2059 211 26 26 14 0 #rect
Cb0 f101 @|EndIcon #fIcon
Cb0 f102 expr out #txt
Cb0 f102 2072 164 2072 211 #arcP
Cb0 f104 type filehandling.Data #txt
Cb0 f104 2243 211 26 26 14 0 #rect
Cb0 f104 @|EndIcon #fIcon
Cb0 f107 expr out #txt
Cb0 f107 2256 163 2256 211 #arcP
Cb0 f108 expr out #txt
Cb0 f108 type filehandling.Data #txt
Cb0 f108 var in2 #txt
Cb0 f108 1368 492 1368 666 #arcP
Cb0 f103 expr out #txt
Cb0 f103 type filehandling.Data #txt
Cb0 f103 var in3 #txt
Cb0 f103 1520 491 1378 676 #arcP
Cb0 f103 1 1520 616 #addKink
Cb0 f103 1 0.3927617072126615 0 0 #arcLabel
Cb0 f11 type filehandling.Data #txt
Cb0 f11 1355 779 26 26 14 0 #rect
Cb0 f11 @|EndIcon #fIcon
Cb0 f78 expr out #txt
Cb0 f78 1368 694 1368 779 #arcP
Cb0 f78 0 0.9153429715826129 0 0 #arcLabel
Cb0 f74 outerBean "ch.ivyteam.ivy.process.eventstart.beans.AutoProcessStarterEventBean" #txt
Cb0 f74 beanConfig "900" #txt
Cb0 f74 outLink eventLink2.ivp #txt
Cb0 f74 type filehandling.Data #txt
Cb0 f74 @C|.xml '<?xml version="1.0" encoding="UTF-8" standalone="yes"?>
<elementInfo>
    <language>
        <name>timer</name>
        <nameStyle>5,7
</nameStyle>
    </language>
</elementInfo>
' #txt
Cb0 f74 @C|.responsibility Everybody #txt
Cb0 f74 1355 51 26 26 14 0 #rect
Cb0 f74 @|StartEventIcon #fIcon
Cb0 f76 type filehandling.Data #txt
Cb0 f76 91 595 26 26 14 0 #rect
Cb0 f76 @|EndIcon #fIcon
Cb0 f76 -8355712|-1|-16777216 #nodeStyle
Cb0 f81 expr in #txt
Cb0 f81 104 558 104 595 #arcP
Cb0 f62 actionDecl 'filehandling.Data out;
' #txt
Cb0 f62 actionTable 'out=in;
out.Share.LastArchiveScan=new DateTime();
' #txt
Cb0 f62 type filehandling.Data #txt
Cb0 f62 @C|.xml '<?xml version="1.0" encoding="UTF-8" standalone="yes"?>
<elementInfo>
    <language>
        <name>set LastArchiveScan
to current DateTime</name>
        <nameStyle>39,7
</nameStyle>
    </language>
</elementInfo>
' #txt
Cb0 f62 726 580 36 24 20 -2 #rect
Cb0 f62 @|StepIcon #fIcon
Cb0 f82 expr out #txt
Cb0 f82 744 556 744 580 #arcP
Cb0 f82 0 0.3762959553315123 0 0 #arcLabel
Cb0 f91 type filehandling.Data #txt
Cb0 f91 processCall 'Functional Processes/scanning/ScanShare:set(ch.soreco.orderbook.bo.ScanShare)' #txt
Cb0 f91 doCall true #txt
Cb0 f91 requestActionDecl '<ch.soreco.orderbook.bo.ScanShare ScanShare> param;
' #txt
Cb0 f91 requestMappingAction 'param.ScanShare=in.Share;
' #txt
Cb0 f91 responseActionDecl 'filehandling.Data out;
' #txt
Cb0 f91 responseMappingAction 'out=in;
' #txt
Cb0 f91 @C|.xml '<?xml version="1.0" encoding="UTF-8" standalone="yes"?>
<elementInfo>
    <language>
        <name>set ScanShare</name>
        <nameStyle>13
</nameStyle>
    </language>
</elementInfo>
' #txt
Cb0 f91 558 844 36 24 20 -2 #rect
Cb0 f91 @|CallSubIcon #fIcon
Cb0 f98 expr out #txt
Cb0 f98 576 814 576 844 #arcP
Cb0 f98 0 0.5561722929085834 0 0 #arcLabel
Cb0 f42 expr out #txt
Cb0 f42 594 856 594 336 #arcP
Cb0 f42 1 872 856 #addKink
Cb0 f42 2 872 336 #addKink
Cb0 f42 1 0.5 0 0 #arcLabel
Cb0 f109 expr out #txt
Cb0 f109 408 604 408 684 #arcP
Cb0 f19 expr out #txt
Cb0 f19 744 604 744 684 #arcP
Cb0 f47 expr in #txt
Cb0 f47 outCond in.success #txt
Cb0 f47 6 #arcStyle
Cb0 f47 576 414 576 434 #arcP
Cb0 f29 expr in #txt
Cb0 f29 outCond !in.success&&in.Shares.size()>0 #txt
Cb0 f29 .xml '<?xml version="1.0" encoding="UTF-8" standalone="yes"?>
<elementInfo>
    <language>
        <name>goto Next</name>
        <nameStyle>9
</nameStyle>
    </language>
</elementInfo>
' #txt
Cb0 f29 6 #arcStyle
Cb0 f29 567 395 558 347 #arcP
Cb0 f29 1 536 376 #addKink
Cb0 f29 2 536 360 #addKink
Cb0 f29 1 0.625 -32 0 #arcLabel
Cb0 f45 expr in #txt
Cb0 f45 562 400 421 400 #arcP
Cb0 f20 expr out #txt
Cb0 f20 1368 77 1368 122 #arcP
Cb0 f57 expr out #txt
Cb0 f57 type filehandling.Data #txt
Cb0 f57 var in4 #txt
Cb0 f57 1664 492 1380 678 #arcP
Cb0 f57 1 1664 624 #addKink
Cb0 f57 1 0.06767558040861157 0 0 #arcLabel
Cb0 f63 actionDecl 'filehandling.Data out;
' #txt
Cb0 f63 actionTable 'out=in;
' #txt
Cb0 f63 type filehandling.Data #txt
Cb0 f63 1246 468 36 24 20 -2 #rect
Cb0 f63 @|StepIcon #fIcon
Cb0 f70 expr out1 #txt
Cb0 f70 1359 141 1264 468 #arcP
Cb0 f70 1 1264 200 #addKink
Cb0 f70 1 0.3252302521219061 0 0 #arcLabel
Cb0 f90 expr out #txt
Cb0 f90 type filehandling.Data #txt
Cb0 f90 var in5 #txt
Cb0 f90 1264 492 1361 673 #arcP
Cb0 f90 1 1264 576 #addKink
Cb0 f90 0 0.898370454604384 0 0 #arcLabel
Cb0 f21 @C|.xml '<?xml version="1.0" encoding="UTF-8" standalone="yes"?>
<elementInfo>
    <language>
        <name>2012-02-20 PB:
IMTF Archivierungsstatus wird nun direkt nach dem XML generieren gesetzt</name>
        <nameStyle>15,7
72,7
</nameStyle>
    </language>
</elementInfo>
' #txt
Cb0 f21 1610 394 60 60 10 0 #rect
Cb0 f21 @|IBIcon #fIcon
Cb0 f21 -1|-1|-16777216 #nodeStyle
Cb0 f2 expr out #txt
Cb0 f2 502 147 569 268 #arcP
Cb0 f2 0 0.7664665091714942 0 0 #arcLabel
>Proto Cb0 .type filehandling.Data #txt
>Proto Cb0 .processKind NORMAL #txt
>Proto Cb0 .xml '<?xml version="1.0" encoding="UTF-8" standalone="yes"?>
<elementInfo>
    <language>
        <swimlaneLabel>Test Filescanning</swimlaneLabel>
        <swimlaneLabel>Filescanning</swimlaneLabel>
        <swimlaneLabel>Housekeeping</swimlaneLabel>
        <swimlaneLabel>Test Housekeeping</swimlaneLabel>
        <swimlaneLabel>Archiving</swimlaneLabel>
        <swimlaneLabel>Test Links</swimlaneLabel>
        <swimlaneLabel></swimlaneLabel>
    </language>
    <swimlaneOrientation>true</swimlaneOrientation>
    <swimlaneSize>256</swimlaneSize>
    <swimlaneSize>322</swimlaneSize>
    <swimlaneSize>342</swimlaneSize>
    <swimlaneSize>244</swimlaneSize>
    <swimlaneSize>671</swimlaneSize>
    <swimlaneSize>449</swimlaneSize>
    <swimlaneColor>-1</swimlaneColor>
    <swimlaneColor>-1</swimlaneColor>
    <swimlaneColor>-1</swimlaneColor>
    <swimlaneColor>-1</swimlaneColor>
    <swimlaneColor>-1</swimlaneColor>
    <swimlaneColor>-26215</swimlaneColor>
</elementInfo>
' #txt
>Proto Cb0 0 0 32 24 18 0 #rect
>Proto Cb0 @|BIcon #fIcon
Cb0 f14 mainOut f17 tail #connect
Cb0 f17 head f10 in #connect
Cb0 f12 head f5 mainIn #connect
Cb0 f4 mainOut f23 tail #connect
Cb0 f23 head f22 mainIn #connect
Cb0 f6 out f13 tail #connect
Cb0 f13 head f4 mainIn #connect
Cb0 f6 out f12 tail #connect
Cb0 f35 head f25 mainIn #connect
Cb0 f30 out f37 tail #connect
Cb0 f37 head f27 mainIn #connect
Cb0 f30 out f35 tail #connect
Cb0 f8 mainOut f34 tail #connect
Cb0 f34 head f14 mainIn #connect
Cb0 f31 out f26 tail #connect
Cb0 f26 head f6 in #connect
Cb0 f31 out f15 tail #connect
Cb0 f15 head f30 in #connect
Cb0 f40 mainOut f43 tail #connect
Cb0 f43 head f39 mainIn #connect
Cb0 f38 mainOut f44 tail #connect
Cb0 f44 head f40 mainIn #connect
Cb0 f5 mainOut f51 tail #connect
Cb0 f51 head f50 in #connect
Cb0 f50 out f41 tail #connect
Cb0 f41 head f28 in #connect
Cb0 f50 out f52 tail #connect
Cb0 f52 head f32 mainIn #connect
Cb0 f25 mainOut f54 tail #connect
Cb0 f54 head f53 in #connect
Cb0 f53 out f24 tail #connect
Cb0 f24 head f28 in #connect
Cb0 f53 out f55 tail #connect
Cb0 f55 head f39 mainIn #connect
Cb0 f39 mainOut f59 tail #connect
Cb0 f59 head f58 in #connect
Cb0 f61 head f60 mainIn #connect
Cb0 f18 mainOut f33 tail #connect
Cb0 f33 head f32 mainIn #connect
Cb0 f58 out f48 tail #connect
Cb0 f48 head f27 mainIn #connect
Cb0 f58 out f61 tail #connect
Cb0 f56 out f49 tail #connect
Cb0 f49 head f4 mainIn #connect
Cb0 f3 mainOut f79 tail #connect
Cb0 f79 head f8 mainIn #connect
Cb0 f80 head f85 mainIn #connect
Cb0 f88 head f87 mainIn #connect
Cb0 f32 mainOut f97 tail #connect
Cb0 f97 head f56 in #connect
Cb0 f83 out f80 tail #connect
Cb0 f83 out f88 tail #connect
Cb0 f36 mainOut f112 tail #connect
Cb0 f112 head f18 mainIn #connect
Cb0 f67 mainOut f95 tail #connect
Cb0 f95 head f73 mainIn #connect
Cb0 f7 mainOut f64 tail #connect
Cb0 f64 head f75 mainIn #connect
Cb0 f72 mainOut f46 tail #connect
Cb0 f46 head f92 mainIn #connect
Cb0 f73 mainOut f100 tail #connect
Cb0 f100 head f65 mainIn #connect
Cb0 f75 mainOut f102 tail #connect
Cb0 f102 head f101 mainIn #connect
Cb0 f92 mainOut f107 tail #connect
Cb0 f107 head f104 mainIn #connect
Cb0 f85 mainOut f108 tail #connect
Cb0 f108 head f89 in #connect
Cb0 f87 mainOut f103 tail #connect
Cb0 f103 head f89 in #connect
Cb0 f89 mainOut f78 tail #connect
Cb0 f78 head f11 mainIn #connect
Cb0 f56 out f81 tail #connect
Cb0 f81 head f76 mainIn #connect
Cb0 f27 mainOut f82 tail #connect
Cb0 f82 head f62 mainIn #connect
Cb0 f28 mainOut f98 tail #connect
Cb0 f98 head f91 mainIn #connect
Cb0 f91 mainOut f42 tail #connect
Cb0 f42 head f14 mainIn #connect
Cb0 f22 mainOut f109 tail #connect
Cb0 f109 head f5 mainIn #connect
Cb0 f62 mainOut f19 tail #connect
Cb0 f19 head f25 mainIn #connect
Cb0 f10 out f47 tail #connect
Cb0 f47 head f31 in #connect
Cb0 f10 out f29 tail #connect
Cb0 f29 head f14 mainIn #connect
Cb0 f10 out f45 tail #connect
Cb0 f45 head f9 mainIn #connect
Cb0 f74 mainOut f20 tail #connect
Cb0 f20 head f83 in #connect
Cb0 f86 mainOut f57 tail #connect
Cb0 f57 head f89 in #connect
Cb0 f83 out f70 tail #connect
Cb0 f70 head f63 mainIn #connect
Cb0 f63 mainOut f90 tail #connect
Cb0 f90 head f89 in #connect
Cb0 f0 mainOut f2 tail #connect
Cb0 f2 head f8 mainIn #connect
