[Ivy]
[>Created: Mon Mar 12 16:24:14 CET 2012]
12CDFE62C3288020 3.15 #module
>Proto >Proto Collection #zClass
Fh0 FileSearch Big #zClass
Fh0 B #cInfo
Fh0 #process
1b0 '1 Sub' Big #zClass
1b0 B #cInfo
Fh0 1b0 1b0 '1 Sub' #zField
Fh0 @TextInP .resExport .resExport #zField
Fh0 @TextInP .type .type #zField
Fh0 @TextInP .processKind .processKind #zField
Fh0 @AnnotationInP-0n ai ai #zField
Fh0 @TextInP .xml .xml #zField
Fh0 @TextInP .responsibility .responsibility #zField
Fh0 @StartSub f0 '' #zField
Fh0 @EndSub f1 '' #zField
Fh0 @EndTask f6 '' #zField
Fh0 @StartRequest f4 '' #zField
Fh0 @GridStep f11 '' #zField
Fh0 @GridStep f13 '' #zField
Fh0 @PushWFArc f14 '' #zField
Fh0 @Alternative f9 '' #zField
Fh0 @GridStep f22 '' #zField
Fh0 @PushWFArc f5 '' #zField
Fh0 @CallSub f2 '' #zField
Fh0 @GridStep f10 '' #zField
Fh0 @PushWFArc f8 '' #zField
Fh0 @GridStep f15 '' #zField
Fh0 @CallSub f27 '' #zField
Fh0 @PushWFArc f28 '' #zField
Fh0 @GridStep f29 '' #zField
Fh0 @PushWFArc f30 '' #zField
Fh0 @Alternative f31 '' #zField
Fh0 @PushWFArc f20 '' #zField
Fh0 @PushWFArc f12 '' #zField
Fh0 @PushWFArc f7 '' #zField
Fh0 @PushWFArc f21 '' #zField
Fh0 @PushWFArc f35 '' #zField
Fh0 @PushWFArc f19 '' #zField
Fh0 @PushWFArc f16 '' #zField
Fh0 @PushWFArc f33 '' #zField
Fh0 @PushWFArc f23 '' #zField
Fh0 @PushWFArc f24 '' #zField
>Proto Fh0 Fh0 FileSearch #zField
1b0 @TextInP .resExport .resExport #zField
1b0 @TextInP .type .type #zField
1b0 @TextInP .processKind .processKind #zField
1b0 @AnnotationInP-0n ai ai #zField
1b0 @TextInP .xml .xml #zField
1b0 @TextInP .responsibility .responsibility #zField
1b0 @CallSub f3 '' #zField
1b0 @GridStep f16 '' #zField
1b0 @Alternative f8 '' #zField
1b0 @GridStep f15 '' #zField
1b0 @PushTrueWFInG-01 g0 '' #zField
1b0 @PushTrueWFOutG-01 g1 '' #zField
1b0 @PushWFArc f4 '' #zField
1b0 @Alternative f6 '' #zField
1b0 @PushWFArc f9 '' #zField
1b0 @PushWFArc f10 '' #zField
1b0 @Alternative f11 '' #zField
1b0 @Alternative f14 '' #zField
1b0 @GridStep f12 '' #zField
1b0 @PushWFArc f18 '' #zField
1b0 @PushWFArc f19 '' #zField
1b0 @PushWFArc f20 '' #zField
1b0 @GridStep f5 '' #zField
1b0 @PushWFArc f22 '' #zField
1b0 @PushWFArc f1 '' #zField
1b0 @Alternative f25 '' #zField
1b0 @Alternative f31 '' #zField
1b0 @PushWFArc f32 '' #zField
1b0 @PushWFArc f34 '' #zField
1b0 @GridStep f46 '' #zField
1b0 @GridStep f39 '' #zField
1b0 @Alternative f51 '' #zField
1b0 @PushWFArc f47 '' #zField
1b0 @PushWFArc f53 '' #zField
1b0 @GridStep f45 '' #zField
1b0 @PushWFArc f17 '' #zField
1b0 @PushWFArc f7 '' #zField
1b0 @Alternative f36 '' #zField
1b0 @PushWFArc f52 '' #zField
1b0 @PushWFArc f49 '' #zField
1b0 @Alternative f24 '' #zField
1b0 @PushWFArc f30 '' #zField
1b0 @CallSub f42 '' #zField
1b0 @PushWFArc f38 '' #zField
1b0 @CallSub f54 '' #zField
1b0 @PushWFArc f55 '' #zField
1b0 @PushWFArc f29 '' #zField
1b0 @PushWFArc f26 '' #zField
1b0 @PushWFArc f44 '' #zField
1b0 @PushWFArc f13 '' #zField
1b0 @PushWFArc f50 '' #zField
1b0 @PushWFArc f48 '' #zField
1b0 @PushWFArc f43 '' #zField
1b0 @PushWFArc f0 '' #zField
1b0 @PushWFArc f28 '' #zField
1b0 @PushWFArc f2 '' #zField
>Proto 1b0 1b0 '1 Sub' #zField
Fh0 1b0 .resExport export #txt
Fh0 1b0 .xml '<?xml version="1.0" encoding="UTF-8" standalone="yes"?>
<elementInfo>
    <language lang="en">
        <name>do files</name>
        <nameStyle>8,5,7
</nameStyle>
    </language>
</elementInfo>
' #txt
Fh0 1b0 406 356 68 40 -20 -8 #rect
Fh0 1b0 @|BIcon #fIcon
Fh0 f0 inParamDecl '<ch.soreco.orderbook.bo.ScanShare Share> param;' #txt
Fh0 f0 inParamTable 'out.Share=param.Share;
' #txt
Fh0 f0 outParamDecl '<> result;
' #txt
Fh0 f0 actionDecl 'ch.soreco.filehandling.functional.FileSearch out;
' #txt
Fh0 f0 callSignature startScanning(ch.soreco.orderbook.bo.ScanShare) #txt
Fh0 f0 type ch.soreco.filehandling.functional.FileSearch #txt
Fh0 f0 @C|.xml '<?xml version="1.0" encoding="UTF-8" standalone="yes"?>
<elementInfo>
    <language>
        <name>startScanning(File)</name>
        <nameStyle>19,5,7
</nameStyle>
    </language>
</elementInfo>
' #txt
Fh0 f0 87 37 26 26 14 0 #rect
Fh0 f0 @|StartSubIcon #fIcon
Fh0 f1 type ch.soreco.filehandling.functional.FileSearch #txt
Fh0 f1 91 307 26 26 14 0 #rect
Fh0 f1 @|EndSubIcon #fIcon
Fh0 f6 type ch.soreco.filehandling.functional.FileSearch #txt
Fh0 f6 276 515 25 26 14 0 #rect
Fh0 f6 @|EndIcon #fIcon
Fh0 f4 outLink fileiscanning.ivp #txt
Fh0 f4 type ch.soreco.filehandling.functional.FileSearch #txt
Fh0 f4 inParamDecl '<ch.soreco.orderbook.bo.ScanShare Share> param;' #txt
Fh0 f4 inParamTable 'out.Share=param.Share;
' #txt
Fh0 f4 actionDecl 'ch.soreco.filehandling.functional.FileSearch out;
' #txt
Fh0 f4 guid 12CDFE697027CE8E #txt
Fh0 f4 requestEnabled true #txt
Fh0 f4 triggerEnabled true #txt
Fh0 f4 callSignature fileiscanning(ch.soreco.orderbook.bo.ScanShare) #txt
Fh0 f4 persist false #txt
Fh0 f4 startName 'File Scanning' #txt
Fh0 f4 taskData '#
#Fri Jul 22 09:43:50 CEST 2011
TaskTriggered.ROL=SYSTEM
TaskTriggered.EXTYPE=0
TaskTriggered.EXPRI=2
TaskTriggered.TYPE=0
TaskTriggered.PRI=2
TaskTriggered.NAM=FileScanning
TaskTriggered.EXROL=SYSTEM
' #txt
Fh0 f4 caseData '#
#Fri Jul 22 09:43:50 CEST 2011
businessCreator.user=
businessMilestone.timestamp=
businessObject.code=
businessObject.docDb.code=
businessObject.folder.id=
businessObject.name=
businessPriority=
businessStart.timestamp=
case.description=
case.name=
correspondent.id=
mainContact.docDb.code=
mainContact.folder.id=
mainContact.id=
mainContact.name=
mainContact.type=
process.code=
process.name=
processCategory.code=
processCategory.name=
subType.code=
subType.name=
type.code=
type.name=
' #txt
Fh0 f4 showInStartList 0 #txt
Fh0 f4 taskAndCaseSetupAction 'import ch.ivyteam.ivy.workflow.TaskUpdateDefinition;
ch.ivyteam.ivy.workflow.TaskUpdateDefinition taskUpdDef = new ch.ivyteam.ivy.workflow.TaskUpdateDefinition();taskUpdDef.setName(engine.expandMacros("FileScanning"));
taskUpdDef.setPriority(ch.ivyteam.ivy.workflow.WorkflowPriority.valueOf(2));
taskUpdDef.setExpiryActivator("SYSTEM");
taskUpdDef.setExpiryPriority(ch.ivyteam.ivy.workflow.WorkflowPriority.valueOf(2));
engine.updateCurrentTask(taskUpdDef);
' #txt
Fh0 f4 @C|.xml '<?xml version="1.0" encoding="UTF-8" standalone="yes"?>
<elementInfo>
    <language>
        <name>fileiscanning(ScanShare)</name>
        <nameStyle>24,5,7
</nameStyle>
    </language>
</elementInfo>
' #txt
Fh0 f4 @C|.responsibility Everybody #txt
Fh0 f4 275 43 26 26 14 0 #rect
Fh0 f4 @|StartRequestIcon #fIcon
Fh0 f11 actionDecl 'ch.soreco.filehandling.functional.FileSearch out;
' #txt
Fh0 f11 actionTable 'out=in;
out.dirSuffix=".PENDING";
out.formerDirSuffix=".050";
out.scannings=null;
' #txt
Fh0 f11 type ch.soreco.filehandling.functional.FileSearch #txt
Fh0 f11 @C|.xml '<?xml version="1.0" encoding="UTF-8" standalone="yes"?>
<elementInfo>
    <language>
        <name>set Suffix</name>
        <nameStyle>10
</nameStyle>
    </language>
</elementInfo>
' #txt
Fh0 f11 270 276 36 24 20 -2 #rect
Fh0 f11 @|StepIcon #fIcon
Fh0 f13 actionDecl 'ch.soreco.filehandling.functional.FileSearch out;
' #txt
Fh0 f13 actionTable 'out=in;
' #txt
Fh0 f13 actionCode 'import jcifs.smb.SmbFile;
import java.io.IOException;
import java.io.FileOutputStream;
import java.io.FileInputStream;
import ch.soreco.filehandling.SmbHelper;

SmbFile xDirectory;

try {

//Declaration
	SmbHelper smb = new SmbHelper(in.Share.NetPathUID, in.Share.NetPathPWD);
	xDirectory = new SmbFile(in.rootFiles.removeGet(0));
	out.success = true;

	if(xDirectory.getName().endsWith(in.formerDirSuffix+"/")){

//Dossiers
		if (xDirectory.getName().startsWith("D0")) {
			//set Suffix PENDING
			String source = xDirectory.getPath();
			String dest = xDirectory.getPath().replace(in.formerDirSuffix,in.dirSuffix);
			smb.renameTo(source,dest);
				
			//save data
			out.Directory = dest;
			out.allFiles = smb.listFiles(dest);

			out.isDossier = true;
			out.success = true;
		}

//Register
		else {
			//do not set a suffix
			in.dirSuffix = "";
			
			//saver data
			out.Directory = xDirectory.getPath();
			out.allFiles = smb.listFiles(xDirectory.getPath());
			out.isDossier = false;
			out.success = true;
		}
	}
		
	out.formerDirSuffix = in.dirSuffix;
	out.dirSuffix = ".DONE";

}
catch( Exception e ) {
	String type; if (in.isDossier) {type="Dossier";} else {type="Register";};
	out.error = "Cannot read files from "+type+" "+xDirectory.getName()+": \n"+
							e.getMessage();
	ivy.log.error(in.error,e);
	out.success = false;
}

' #txt
Fh0 f13 type ch.soreco.filehandling.functional.FileSearch #txt
Fh0 f13 @C|.xml '<?xml version="1.0" encoding="UTF-8" standalone="yes"?>
<elementInfo>
    <language>
        <name>get directory</name>
        <nameStyle>13
</nameStyle>
    </language>
</elementInfo>
' #txt
Fh0 f13 270 316 36 24 20 -2 #rect
Fh0 f13 @|StepIcon #fIcon
Fh0 f14 expr out #txt
Fh0 f14 288 300 288 316 #arcP
Fh0 f14 0 0.8352217035283556 0 0 #arcLabel
Fh0 f9 type ch.soreco.filehandling.functional.FileSearch #txt
Fh0 f9 @C|.xml '<?xml version="1.0" encoding="UTF-8" standalone="yes"?>
<elementInfo>
    <language>
        <name>found directory?</name>
        <nameStyle>16
</nameStyle>
    </language>
</elementInfo>
' #txt
Fh0 f9 274 362 28 28 13 1 #rect
Fh0 f9 @|AlternativeIcon #fIcon
Fh0 f9 -13016147|-1|-16777216 #nodeStyle
Fh0 f22 actionDecl 'ch.soreco.filehandling.functional.FileSearch out;
' #txt
Fh0 f22 actionTable 'out=in;
' #txt
Fh0 f22 actionCode 'import jcifs.smb.SmbFile;
import ch.soreco.filehandling.SmbHelper;

SmbFile dir;

try {
	SmbHelper smb = new SmbHelper(in.Share.NetPathUID, in.Share.NetPathPWD);
	dir = new SmbFile(in.Directory);

	if (dir.getName().startsWith("D0")){

			String source = dir.getPath();
			String dest = dir.getPath().replace(in.formerDirSuffix,in.dirSuffix);
			smb.renameTo(source,dest);
	}
}

catch (Exception e) {
	out.error = "Cannot rename directory "+dir.getName()+": \n"+
							e.getMessage();
	ivy.log.error(in.error,e);
	out.success = false;
}

out.Directory = null;
in.allFiles.clear();
' #txt
Fh0 f22 type ch.soreco.filehandling.functional.FileSearch #txt
Fh0 f22 @C|.xml '<?xml version="1.0" encoding="UTF-8" standalone="yes"?>
<elementInfo>
    <language>
        <name>rename Directory</name>
        <nameStyle>16
</nameStyle>
    </language>
</elementInfo>
' #txt
Fh0 f22 542 284 36 24 -43 -33 #rect
Fh0 f22 @|StepIcon #fIcon
Fh0 f22 -13016147|-1|-16777216 #nodeStyle
Fh0 f5 expr out #txt
Fh0 f5 100 62 103 307 #arcP
Fh0 f2 type ch.soreco.filehandling.functional.FileSearch #txt
Fh0 f2 processCall 'Functional Processes/scanning/ScanLog:set(ch.soreco.orderbook.bo.ScanLog)' #txt
Fh0 f2 doCall true #txt
Fh0 f2 requestActionDecl '<ch.soreco.orderbook.bo.ScanLog ScanLog> param;
' #txt
Fh0 f2 requestMappingAction 'param.ScanLog=in.ScanLog;
' #txt
Fh0 f2 responseActionDecl 'ch.soreco.filehandling.functional.FileSearch out;
' #txt
Fh0 f2 responseMappingAction 'out=in;
' #txt
Fh0 f2 @C|.xml '<?xml version="1.0" encoding="UTF-8" standalone="yes"?>
<elementInfo>
    <language>
        <name>set Log</name>
        <nameStyle>7
</nameStyle>
    </language>
</elementInfo>
' #txt
Fh0 f2 270 460 36 24 20 -2 #rect
Fh0 f2 @|CallSubIcon #fIcon
Fh0 f10 actionDecl 'ch.soreco.filehandling.functional.FileSearch out;
' #txt
Fh0 f10 actionTable 'out=in;
out.ScanLog.ScanEnd=new DateTime();
' #txt
Fh0 f10 type ch.soreco.filehandling.functional.FileSearch #txt
Fh0 f10 @C|.xml '<?xml version="1.0" encoding="UTF-8" standalone="yes"?>
<elementInfo>
    <language>
        <name>set Log</name>
        <nameStyle>7
</nameStyle>
    </language>
</elementInfo>
' #txt
Fh0 f10 270 412 36 24 20 -2 #rect
Fh0 f10 @|StepIcon #fIcon
Fh0 f8 expr out #txt
Fh0 f8 288 436 288 460 #arcP
Fh0 f15 actionDecl 'ch.soreco.filehandling.functional.FileSearch out;
' #txt
Fh0 f15 actionTable 'out=in;
out.ScanLog.Errors=0;
out.ScanLog.ScanStart=new DateTime();
out.ScanLog.ScanType="Fileimport";
out.ScanLog.ShareId=in.Share.id;
out.ScanLog.Successful=0;
out.ScanLog.Total=0;
out.ScanLog.Warnings=0;
' #txt
Fh0 f15 type ch.soreco.filehandling.functional.FileSearch #txt
Fh0 f15 @C|.xml '<?xml version="1.0" encoding="UTF-8" standalone="yes"?>
<elementInfo>
    <language>
        <name>init</name>
        <nameStyle>4,7
</nameStyle>
    </language>
</elementInfo>
' #txt
Fh0 f15 270 92 36 24 20 -2 #rect
Fh0 f15 @|StepIcon #fIcon
Fh0 f27 type ch.soreco.filehandling.functional.FileSearch #txt
Fh0 f27 processCall 'Functional Processes/scanning/ScanLog:set(ch.soreco.orderbook.bo.ScanLog)' #txt
Fh0 f27 doCall true #txt
Fh0 f27 requestActionDecl '<ch.soreco.orderbook.bo.ScanLog ScanLog> param;
' #txt
Fh0 f27 requestMappingAction 'param.ScanLog=in.ScanLog;
' #txt
Fh0 f27 responseActionDecl 'ch.soreco.filehandling.functional.FileSearch out;
' #txt
Fh0 f27 responseMappingAction 'out=in;
out.ScanLog=result.ScanLog;
' #txt
Fh0 f27 @C|.xml '<?xml version="1.0" encoding="UTF-8" standalone="yes"?>
<elementInfo>
    <language>
        <name>set Log</name>
        <nameStyle>7
</nameStyle>
    </language>
</elementInfo>
' #txt
Fh0 f27 270 124 36 24 20 -2 #rect
Fh0 f27 @|CallSubIcon #fIcon
Fh0 f28 expr out #txt
Fh0 f28 288 116 288 124 #arcP
Fh0 f29 actionDecl 'ch.soreco.filehandling.functional.FileSearch out;
' #txt
Fh0 f29 actionTable 'out=in;
' #txt
Fh0 f29 actionCode 'import ch.soreco.filehandling.SmbHelper;

try {
	SmbHelper smb = new SmbHelper(in.Share.NetPathUID, in.Share.NetPathPWD);
	out.rootFiles = smb.listFiles(in.Share.NetPath);
}
catch( Exception e ) {
	out.error = "Cannot read the root files from the Share "+in.Share.NetPath+
							" (UID: "+in.Share.NetPathUID+") :\n"+e.getMessage();
	ivy.log.error(out.error,e);
	out.success = false;
}


' #txt
Fh0 f29 type ch.soreco.filehandling.functional.FileSearch #txt
Fh0 f29 @C|.xml '<?xml version="1.0" encoding="UTF-8" standalone="yes"?>
<elementInfo>
    <language>
        <name>get all directories</name>
        <nameStyle>19
</nameStyle>
    </language>
</elementInfo>
' #txt
Fh0 f29 270 172 36 24 20 -2 #rect
Fh0 f29 @|StepIcon #fIcon
Fh0 f29 -13016147|-1|-16777216 #nodeStyle
Fh0 f30 expr out #txt
Fh0 f30 288 148 288 172 #arcP
Fh0 f31 type ch.soreco.filehandling.functional.FileSearch #txt
Fh0 f31 @C|.xml '<?xml version="1.0" encoding="UTF-8" standalone="yes"?>
<elementInfo>
    <language>
        <name>next directory?</name>
        <nameStyle>15
</nameStyle>
    </language>
</elementInfo>
' #txt
Fh0 f31 274 234 28 28 14 0 #rect
Fh0 f31 @|AlternativeIcon #fIcon
Fh0 f20 expr in #txt
Fh0 f20 274 248 270 424 #arcP
Fh0 f20 1 208 248 #addKink
Fh0 f20 2 208 424 #addKink
Fh0 f20 1 0.5169593292438632 0 0 #arcLabel
Fh0 f12 expr out #txt
Fh0 f12 288 196 288 234 #arcP
Fh0 f7 expr in #txt
Fh0 f7 outCond in.rootFiles.size()>0 #txt
Fh0 f7 288 262 288 276 #arcP
Fh0 f21 expr out #txt
Fh0 f21 288 340 288 362 #arcP
Fh0 f35 expr in #txt
Fh0 f35 outCond 'in.success && in.allFiles.size()<1' #txt
Fh0 f35 274 376 278 252 #arcP
Fh0 f35 1 232 376 #addKink
Fh0 f35 2 232 272 #addKink
Fh0 f35 0 0.3437962347494577 0 0 #arcLabel
Fh0 f19 expr in #txt
Fh0 f19 302 376 406 376 #arcP
Fh0 f16 expr out #txt
Fh0 f16 288 69 288 92 #arcP
Fh0 f16 0 0.34668127707748336 0 0 #arcLabel
Fh0 f33 expr out #txt
Fh0 f33 560 284 302 248 #arcP
Fh0 f33 1 560 248 #addKink
Fh0 f33 0 0.7423873129344737 0 0 #arcLabel
Fh0 f23 expr out #txt
Fh0 f23 288 484 287 515 #arcP
Fh0 f24 .xml '<?xml version="1.0" encoding="UTF-8" standalone="yes"?>
<elementInfo>
    <language>
        <name>loop directory</name>
        <nameStyle>14
</nameStyle>
    </language>
</elementInfo>
' #txt
Fh0 f24 474 376 560 308 #arcP
Fh0 f24 1 560 376 #addKink
Fh0 f24 0 0.47674418604651164 0 -12 #arcLabel
>Proto Fh0 .type ch.soreco.filehandling.functional.FileSearch #txt
>Proto Fh0 .processKind CALLABLE_SUB #txt
>Proto Fh0 .xml '<?xml version="1.0" encoding="UTF-8" standalone="yes"?>
<elementInfo>
    <language/>
</elementInfo>
' #txt
>Proto Fh0 0 0 32 24 18 0 #rect
>Proto Fh0 @|BIcon #fIcon
1b0 f3 type ch.soreco.filehandling.functional.FileSearch #txt
1b0 f3 processCall 'Functional Processes/Scanning/FileImport:initializeScanning(ch.soreco.orderbook.bo.ScanShare,List<String>)' #txt
1b0 f3 doCall true #txt
1b0 f3 requestActionDecl '<ch.soreco.orderbook.bo.ScanShare share,List<java.lang.String> FileSet> param;
' #txt
1b0 f3 requestMappingAction 'param.share=in.Share;
param.FileSet=in.FileSet;
' #txt
1b0 f3 responseActionDecl 'ch.soreco.filehandling.functional.FileSearch out;
' #txt
1b0 f3 responseMappingAction 'out=in;
out.dirSuffix=IF(!result.success,".ERROR",in.dirSuffix);
out.error=result.error;
out.formerFileSuffix="_PENDING";
out.scannings=IF(in.isDossier
	, in.scannings.add(result.scanning)
	, in.scannings.clear().add(result.scanning)
	);
out.success=result.success;
' #txt
1b0 f3 @C|.xml '<?xml version="1.0" encoding="UTF-8" standalone="yes"?>
<elementInfo>
    <language>
        <name>initialize Scannings</name>
        <nameStyle>20
</nameStyle>
    </language>
</elementInfo>
' #txt
1b0 f3 542 236 36 24 20 -2 #rect
1b0 f3 @|CallSubIcon #fIcon
1b0 f16 actionDecl 'ch.soreco.filehandling.functional.FileSearch out;
' #txt
1b0 f16 actionTable 'out=in;
' #txt
1b0 f16 actionCode 'import java.io.IOException;
import java.io.FileOutputStream;
import java.io.FileInputStream;

try {

in.FileSet = new List<String>();

	//Einzelne FileSets zusammenstellen
	for (String iFile:in.allFiles) {
	
		//Order file scanning
		if (iFile.endsWith("_T1.xml")) {
			in.FileSet.add(iFile);
			in.allFiles.remove(iFile);

			for (String xFile:in.allFiles){
				if (	xFile.toLowerCase().endsWith(".pdf") && 																	// just PDF files
							xFile.startsWith(iFile.substring(0,iFile.indexOf("_T1.xml")))) {			// just dataset files
					if (xFile.contains("_G1.")) {																									// colored file
						in.FileSet.add(1,xFile); }
					else if (xFile.contains("_M1.")) {																						// monochrom file
						in.FileSet.add(2,xFile); }
					else {
						in.FileSet.add(3,xFile); }
				}
			}
			break;
		}
	}	
}
catch( Exception e ) {
	out.error = "Error by searching files set:\n"+e.getMessage();
	ivy.log.error(in.error,e);
	out.success = false;
}
' #txt
1b0 f16 type ch.soreco.filehandling.functional.FileSearch #txt
1b0 f16 @C|.xml '<?xml version="1.0" encoding="UTF-8" standalone="yes"?>
<elementInfo>
    <language>
        <name>searchFiles</name>
        <nameStyle>11
</nameStyle>
    </language>
</elementInfo>
' #txt
1b0 f16 326 44 36 24 20 -2 #rect
1b0 f16 @|StepIcon #fIcon
1b0 f16 -13016147|-1|-16777216 #nodeStyle
1b0 f8 type ch.soreco.filehandling.functional.FileSearch #txt
1b0 f8 @C|.xml '<?xml version="1.0" encoding="UTF-8" standalone="yes"?>
<elementInfo>
    <language>
        <name>found Set?</name>
        <nameStyle>10
</nameStyle>
    </language>
</elementInfo>
' #txt
1b0 f8 330 186 28 28 14 0 #rect
1b0 f8 @|AlternativeIcon #fIcon
1b0 f15 actionDecl 'ch.soreco.filehandling.functional.FileSearch out;
' #txt
1b0 f15 actionTable 'out=in;
out.ScanLog.Errors=IF(in.success,in.ScanLog.Errors,in.ScanLog.Errors + 1);
out.ScanLog.Successful=IF(in.success,in.ScanLog.Successful + 1,in.ScanLog.Successful);
out.ScanLog.Total=in.ScanLog.Total + 1;
' #txt
1b0 f15 type ch.soreco.filehandling.functional.FileSearch #txt
1b0 f15 @C|.xml '<?xml version="1.0" encoding="UTF-8" standalone="yes"?>
<elementInfo>
    <language>
        <name>set Increment ScanLog values</name>
        <nameStyle>28
</nameStyle>
    </language>
</elementInfo>
' #txt
1b0 f15 542 596 36 24 30 -2 #rect
1b0 f15 @|StepIcon #fIcon
1b0 f15 -13016147|-1|-16777216 #nodeStyle
1b0 g0 @C|.xml '<?xml version="1.0" encoding="UTF-8" standalone="yes"?>
<elementInfo>
    <language lang="en">
        <name>in 1</name>
    </language>
</elementInfo>
' #txt
1b0 g0 341 -6 6 6 9 2 #rect
1b0 g0 @|MIGIcon #fIcon
1b0 g1 @C|.xml '<?xml version="1.0" encoding="UTF-8" standalone="yes"?>
<elementInfo>
    <language lang="en">
        <name>out 1</name>
    </language>
</elementInfo>
' #txt
1b0 g1 141 957 6 6 7 -18 #rect
1b0 g1 @|MOGIcon #fIcon
1b0 f4 expr in #txt
1b0 f4 outCond in.FileSet.size()>0 #txt
1b0 f4 6 #arcStyle
1b0 f4 355 203 542 244 #arcP
1b0 f4 0 0.2212584535317266 0 0 #arcLabel
1b0 f6 type ch.soreco.filehandling.functional.FileSearch #txt
1b0 f6 @C|.xml '<?xml version="1.0" encoding="UTF-8" standalone="yes"?>
<elementInfo>
    <language>
        <name>no error?</name>
        <nameStyle>9
</nameStyle>
    </language>
</elementInfo>
' #txt
1b0 f6 330 82 28 28 14 0 #rect
1b0 f6 @|AlternativeIcon #fIcon
1b0 f6 -13016147|-1|-16777216 #nodeStyle
1b0 f9 expr out #txt
1b0 f9 344 68 344 82 #arcP
1b0 f10 expr in #txt
1b0 f10 6 #arcStyle
1b0 f10 344 110 344 186 #arcP
1b0 f11 type ch.soreco.filehandling.functional.FileSearch #txt
1b0 f11 @C|.xml '<?xml version="1.0" encoding="UTF-8" standalone="yes"?>
<elementInfo>
    <language>
        <name>has Error and isDossier?</name>
        <nameStyle>24
</nameStyle>
    </language>
</elementInfo>
' #txt
1b0 f11 546 738 28 28 14 0 #rect
1b0 f11 @|AlternativeIcon #fIcon
1b0 f14 type ch.soreco.filehandling.functional.FileSearch #txt
1b0 f14 @C|.xml '<?xml version="1.0" encoding="UTF-8" standalone="yes"?>
<elementInfo>
    <language>
        <name>is Dossier?</name>
        <nameStyle>11
</nameStyle>
    </language>
</elementInfo>
' #txt
1b0 f14 250 130 28 28 -89 -30 #rect
1b0 f14 @|AlternativeIcon #fIcon
1b0 f12 actionDecl 'ch.soreco.filehandling.functional.FileSearch out;
' #txt
1b0 f12 actionTable 'out=in;
out.dirSuffix=".ERROR";
' #txt
1b0 f12 type ch.soreco.filehandling.functional.FileSearch #txt
1b0 f12 @C|.xml '<?xml version="1.0" encoding="UTF-8" standalone="yes"?>
<elementInfo>
    <language>
        <name>set Directory .ERROR suffix attribute</name>
        <nameStyle>37
</nameStyle>
    </language>
</elementInfo>
' #txt
1b0 f12 294 524 36 24 20 -2 #rect
1b0 f12 @|StepIcon #fIcon
1b0 f12 -13016147|-1|-16777216 #nodeStyle
1b0 f18 expr in #txt
1b0 f18 outCond 'in.isDossier && !in.success' #txt
1b0 f18 0 #arcStyle
1b0 f18 553 745 326 548 #arcP
1b0 f18 0 0.4300566953699964 0 0 #arcLabel
1b0 f19 expr in #txt
1b0 f19 outCond in.isDossier #txt
1b0 f19 6 #arcStyle
1b0 f19 250 144 294 536 #arcP
1b0 f19 1 32 144 #addKink
1b0 f19 2 32 536 #addKink
1b0 f19 1 0.5191545250317833 0 0 #arcLabel
1b0 f20 expr in #txt
1b0 f20 3 #arcStyle
1b0 f20 272 150 336 194 #arcP
1b0 f5 actionDecl 'ch.soreco.filehandling.functional.FileSearch out;
' #txt
1b0 f5 actionTable 'out=in;
' #txt
1b0 f5 type ch.soreco.filehandling.functional.FileSearch #txt
1b0 f5 134 444 36 24 20 -2 #rect
1b0 f5 @|StepIcon #fIcon
1b0 f22 expr out #txt
1b0 f22 294 527 170 465 #arcP
1b0 f22 0 0.40276133018443 0 0 #arcLabel
1b0 f1 expr out #txt
1b0 f1 152 468 144 957 #arcP
1b0 f25 type ch.soreco.filehandling.functional.FileSearch #txt
1b0 f25 @C|.xml '<?xml version="1.0" encoding="UTF-8" standalone="yes"?>
<elementInfo>
    <language>
        <name>is part of Dossier?</name>
        <nameStyle>19
</nameStyle>
    </language>
</elementInfo>
' #txt
1b0 f25 546 354 28 28 -108 -27 #rect
1b0 f25 @|AlternativeIcon #fIcon
1b0 f31 type ch.soreco.filehandling.functional.FileSearch #txt
1b0 f31 @C|.xml '<?xml version="1.0" encoding="UTF-8" standalone="yes"?>
<elementInfo>
    <language>
        <name>is Dossier?</name>
        <nameStyle>11
</nameStyle>
    </language>
</elementInfo>
' #txt
1b0 f31 138 242 28 28 30 -4 #rect
1b0 f31 @|AlternativeIcon #fIcon
1b0 f32 expr in #txt
1b0 f32 .xml '<?xml version="1.0" encoding="UTF-8" standalone="yes"?>
<elementInfo>
    <language>
        <name>loop directory</name>
        <nameStyle>14
</nameStyle>
    </language>
</elementInfo>
' #txt
1b0 f32 3 #arcStyle
1b0 f32 333 203 163 253 #arcP
1b0 f32 0 0.28503184713375795 -7 -22 #arcLabel
1b0 f34 expr in #txt
1b0 f34 3 #arcStyle
1b0 f34 152 270 152 444 #arcP
1b0 f34 0 0.4840199030161163 0 0 #arcLabel
1b0 f46 actionDecl 'ch.soreco.filehandling.functional.FileSearch out;
' #txt
1b0 f46 actionTable 'out=in;
' #txt
1b0 f46 actionCode '//in.formerFileSuffix = in.fileSuffix;
in.fileSuffix = "_DONE";
out.success = true;' #txt
1b0 f46 type ch.soreco.filehandling.functional.FileSearch #txt
1b0 f46 @C|.xml '<?xml version="1.0" encoding="UTF-8" standalone="yes"?>
<elementInfo>
    <language>
        <name>set _DONE file suffix and success to true</name>
        <nameStyle>41
</nameStyle>
    </language>
</elementInfo>
' #txt
1b0 f46 542 516 36 24 21 -7 #rect
1b0 f46 @|StepIcon #fIcon
1b0 f39 actionDecl 'ch.soreco.filehandling.functional.FileSearch out;
' #txt
1b0 f39 actionTable 'out=in;
' #txt
1b0 f39 actionCode '//in.formerFileSuffix = in.fileSuffix;
in.fileSuffix = "_ERROR";
out.success = false;' #txt
1b0 f39 type ch.soreco.filehandling.functional.FileSearch #txt
1b0 f39 @C|.xml '<?xml version="1.0" encoding="UTF-8" standalone="yes"?>
<elementInfo>
    <language>
        <name>set success false and fileSuffix _ERROR</name>
        <nameStyle>39
</nameStyle>
    </language>
</elementInfo>
' #txt
1b0 f39 670 492 36 24 29 -8 #rect
1b0 f39 @|StepIcon #fIcon
1b0 f39 -13016147|-1|-16777216 #nodeStyle
1b0 f51 type ch.soreco.filehandling.functional.FileSearch #txt
1b0 f51 @C|.xml '<?xml version="1.0" encoding="UTF-8" standalone="yes"?>
<elementInfo>
    <language>
        <name>Order ok?</name>
        <nameStyle>9
</nameStyle>
    </language>
</elementInfo>
' #txt
1b0 f51 546 442 28 28 18 -7 #rect
1b0 f51 @|AlternativeIcon #fIcon
1b0 f47 expr in #txt
1b0 f47 outCond in.success #txt
1b0 f47 6 #arcStyle
1b0 f47 560 470 560 516 #arcP
1b0 f53 expr in #txt
1b0 f53 3 #arcStyle
1b0 f53 570 460 670 497 #arcP
1b0 f45 actionDecl 'ch.soreco.filehandling.functional.FileSearch out;
' #txt
1b0 f45 actionTable 'out=in;
' #txt
1b0 f45 actionCode 'import ch.soreco.filehandling.SmbHelper;

String source;
String dest;

try {
//Declaration
	SmbHelper smb = new SmbHelper(in.Share.NetPathUID, in.Share.NetPathPWD);

	for (String setFile:in.FileSet) {
		source = setFile;
		dest = setFile.replace(in.formerFileSuffix,in.fileSuffix);
		if(source.contains(".pdf") && !in.fileSuffix.equalsIgnoreCase(".ERROR")){
			smb.deleteDir(source);
		} else {
			smb.renameTo(source,dest);
		}
	}
}
catch (Exception e) {
	out.error = "Cannot rename file "+source+" to "+dest+":\n"+
							e.getMessage();
	ivy.log.error(in.error,e);
	out.success = false;
}' #txt
1b0 f45 type ch.soreco.filehandling.functional.FileSearch #txt
1b0 f45 @C|.xml '<?xml version="1.0" encoding="UTF-8" standalone="yes"?>
<elementInfo>
    <language>
        <name>set new suffix</name>
        <nameStyle>14,7
</nameStyle>
    </language>
</elementInfo>
' #txt
1b0 f45 542 676 36 24 25 -11 #rect
1b0 f45 @|StepIcon #fIcon
1b0 f45 -13016147|-1|-16777216 #nodeStyle
1b0 f17 expr out #txt
1b0 f17 560 700 560 738 #arcP
1b0 f17 0 0.45462100471505057 0 0 #arcLabel
1b0 f7 expr in #txt
1b0 f7 outCond in.isDossier #txt
1b0 f7 6 #arcStyle
1b0 f7 560 382 560 442 #arcP
1b0 f7 0 0.5210868953277593 0 0 #arcLabel
1b0 f36 type ch.soreco.filehandling.functional.FileSearch #txt
1b0 f36 @C|.xml '<?xml version="1.0" encoding="UTF-8" standalone="yes"?>
<elementInfo>
    <language>
        <name>save successful?</name>
        <nameStyle>16
</nameStyle>
    </language>
</elementInfo>
' #txt
1b0 f36 226 346 28 28 18 -27 #rect
1b0 f36 @|AlternativeIcon #fIcon
1b0 f52 expr in #txt
1b0 f52 3 #arcStyle
1b0 f52 244 370 307 524 #arcP
1b0 f49 expr in #txt
1b0 f49 outCond in.success #txt
1b0 f49 6 #arcStyle
1b0 f49 233 367 163 444 #arcP
1b0 f24 type ch.soreco.filehandling.functional.FileSearch #txt
1b0 f24 @C|.xml '<?xml version="1.0" encoding="UTF-8" standalone="yes"?>
<elementInfo>
    <language>
        <name>Scanning initialisation successful?</name>
        <nameStyle>35
</nameStyle>
    </language>
</elementInfo>
' #txt
1b0 f24 546 282 28 28 14 0 #rect
1b0 f24 @|AlternativeIcon #fIcon
1b0 f30 expr out #txt
1b0 f30 560 260 560 282 #arcP
1b0 f42 type ch.soreco.filehandling.functional.FileSearch #txt
1b0 f42 processCall 'Functional Processes/Scanning/FileImport:setOrder(List<ch.soreco.orderbook.bo.Scanning>)' #txt
1b0 f42 doCall true #txt
1b0 f42 requestActionDecl '<List<ch.soreco.orderbook.bo.Scanning> Scannings> param;
' #txt
1b0 f42 requestMappingAction 'param.Scannings=in.scannings;
' #txt
1b0 f42 responseActionDecl 'ch.soreco.filehandling.functional.FileSearch out;
' #txt
1b0 f42 responseMappingAction 'out=in;
out.error=result.error;
out.success=result.success;
' #txt
1b0 f42 @C|.xml '<?xml version="1.0" encoding="UTF-8" standalone="yes"?>
<elementInfo>
    <language>
        <name>set Order with all Scannings</name>
        <nameStyle>28
</nameStyle>
    </language>
</elementInfo>
' #txt
1b0 f42 222 292 36 24 20 -2 #rect
1b0 f42 @|CallSubIcon #fIcon
1b0 f38 expr out #txt
1b0 f38 240 316 240 346 #arcP
1b0 f54 type ch.soreco.filehandling.functional.FileSearch #txt
1b0 f54 processCall 'Functional Processes/Scanning/FileImport:setOrder(List<ch.soreco.orderbook.bo.Scanning>)' #txt
1b0 f54 doCall true #txt
1b0 f54 requestActionDecl '<List<ch.soreco.orderbook.bo.Scanning> Scannings> param;
' #txt
1b0 f54 requestMappingAction 'param.Scannings=in.scannings;
' #txt
1b0 f54 responseActionDecl 'ch.soreco.filehandling.functional.FileSearch out;
' #txt
1b0 f54 responseMappingAction 'out=in;
out.error=result.error;
out.success=result.success;
' #txt
1b0 f54 @C|.xml '<?xml version="1.0" encoding="UTF-8" standalone="yes"?>
<elementInfo>
    <language>
        <name>set Order</name>
        <nameStyle>9
</nameStyle>
    </language>
</elementInfo>
' #txt
1b0 f54 470 396 36 24 -23 14 #rect
1b0 f54 @|CallSubIcon #fIcon
1b0 f55 expr in #txt
1b0 f55 3 #arcStyle
1b0 f55 551 373 506 398 #arcP
1b0 f29 expr out #txt
1b0 f29 506 420 552 450 #arcP
1b0 f26 expr in #txt
1b0 f26 outCond in.isDossier #txt
1b0 f26 6 #arcStyle
1b0 f26 161 261 222 294 #arcP
1b0 f26 0 0.5401855597444838 0 0 #arcLabel
1b0 f44 344 0 344 44 #arcP
1b0 f13 expr in #txt
1b0 f13 574 752 362 56 #arcP
1b0 f13 1 792 752 #addKink
1b0 f13 2 792 56 #addKink
1b0 f13 1 0.3547405774833265 0 0 #arcLabel
1b0 f50 expr out #txt
1b0 f50 688 516 578 600 #arcP
1b0 f50 1 688 552 #addKink
1b0 f50 0 0.4888068101688725 0 0 #arcLabel
1b0 f48 expr out #txt
1b0 f48 560 540 560 596 #arcP
1b0 f48 0 0.5187608855766263 0 0 #arcLabel
1b0 f43 expr in #txt
1b0 f43 outCond in.success #txt
1b0 f43 6 #arcStyle
1b0 f43 560 310 560 354 #arcP
1b0 f43 0 0.6244472581621127 0 0 #arcLabel
1b0 f0 expr out #txt
1b0 f0 560 620 560 676 #arcP
1b0 f28 expr in #txt
1b0 f28 outCond !in.success #txt
1b0 f28 3 #arcStyle
1b0 f28 335 101 273 139 #arcP
1b0 f28 0 0.7056833694143381 0 0 #arcLabel
1b0 f2 expr in #txt
1b0 f2 3 #arcStyle
1b0 f2 569 301 688 492 #arcP
1b0 f2 1 688 368 #addKink
1b0 f2 0 0.9493540353831158 0 0 #arcLabel
>Proto 1b0 0 0 32 24 18 0 #rect
>Proto 1b0 @|BIcon #fIcon
Fh0 f11 mainOut f14 tail #connect
Fh0 f14 head f13 mainIn #connect
Fh0 f0 mainOut f5 tail #connect
Fh0 f5 head f1 mainIn #connect
Fh0 f10 mainOut f8 tail #connect
Fh0 f8 head f2 mainIn #connect
Fh0 f15 mainOut f28 tail #connect
Fh0 f28 head f27 mainIn #connect
Fh0 f27 mainOut f30 tail #connect
Fh0 f30 head f29 mainIn #connect
Fh0 f20 head f10 mainIn #connect
Fh0 f29 mainOut f12 tail #connect
Fh0 f12 head f31 in #connect
Fh0 f31 out f7 tail #connect
Fh0 f7 head f11 mainIn #connect
Fh0 f31 out f20 tail #connect
Fh0 f13 mainOut f21 tail #connect
Fh0 f21 head f9 in #connect
Fh0 f9 out f35 tail #connect
Fh0 f35 head f31 in #connect
Fh0 f19 head 1b0 g0 #connect
Fh0 f4 mainOut f16 tail #connect
Fh0 f16 head f15 mainIn #connect
Fh0 f9 out f19 tail #connect
Fh0 f22 mainOut f33 tail #connect
Fh0 f33 head f31 in #connect
Fh0 f2 mainOut f23 tail #connect
Fh0 f23 head f6 mainIn #connect
Fh0 1b0 g1 f24 tail #connect
Fh0 f24 head f22 mainIn #connect
1b0 f8 out f4 tail #connect
1b0 f4 head f3 mainIn #connect
1b0 f16 mainOut f9 tail #connect
1b0 f9 head f6 in #connect
1b0 f10 head f8 in #connect
1b0 f11 out f18 tail #connect
1b0 f18 head f12 mainIn #connect
1b0 f14 out f19 tail #connect
1b0 f19 head f12 mainIn #connect
1b0 f14 out f20 tail #connect
1b0 f20 head f8 in #connect
1b0 f12 mainOut f22 tail #connect
1b0 f22 head f5 mainIn #connect
1b0 f5 mainOut f1 tail #connect
1b0 f1 head g1 m #connect
1b0 f8 out f32 tail #connect
1b0 f32 head f31 in #connect
1b0 f34 head f5 mainIn #connect
1b0 f51 out f47 tail #connect
1b0 f47 head f46 mainIn #connect
1b0 f51 out f53 tail #connect
1b0 f53 head f39 mainIn #connect
1b0 f45 mainOut f17 tail #connect
1b0 f17 head f11 in #connect
1b0 f25 out f7 tail #connect
1b0 f7 head f51 in #connect
1b0 f52 head f12 mainIn #connect
1b0 f36 out f49 tail #connect
1b0 f49 head f5 mainIn #connect
1b0 f36 out f52 tail #connect
1b0 f3 mainOut f30 tail #connect
1b0 f30 head f24 in #connect
1b0 f42 mainOut f38 tail #connect
1b0 f38 head f36 in #connect
1b0 f25 out f55 tail #connect
1b0 f55 head f54 mainIn #connect
1b0 f54 mainOut f29 tail #connect
1b0 f29 head f51 in #connect
1b0 f31 out f26 tail #connect
1b0 f26 head f42 mainIn #connect
1b0 f31 out f34 tail #connect
1b0 g0 m f44 tail #connect
1b0 f44 head f16 mainIn #connect
1b0 f11 out f13 tail #connect
1b0 f13 head f16 mainIn #connect
1b0 f39 mainOut f50 tail #connect
1b0 f50 head f15 mainIn #connect
1b0 f46 mainOut f48 tail #connect
1b0 f48 head f15 mainIn #connect
1b0 f24 out f43 tail #connect
1b0 f43 head f25 in #connect
1b0 f15 mainOut f0 tail #connect
1b0 f0 head f45 mainIn #connect
1b0 f6 out f28 tail #connect
1b0 f28 head f14 in #connect
1b0 f6 out f10 tail #connect
1b0 f24 out f2 tail #connect
1b0 f2 head f39 mainIn #connect
1b0 0 0 1128 956 0 #ivRect
